{
  "totalPage": 4,
  "page": 1,
  "is_ok": "ok",
  "totalCount": 21,
  "list": [
    {
      "eng_content": "An even greater harmony of taste with the combination<br> of a whole chicken thigh patty and spicy Sriracha Mayo sauce.<br><br>\r\n\r\n*Available from 10:30AM~4AM",
      "kor_origin": "",
      "allegyList": [],
      "name_txt": "",
      "materialList": [],
      "prev": null,
      "carbohydrate": "15",
      "moddate": "2024-10-29",
      "pc_kor_alt": "신제품",
      "mo_image_url": "/upload/product/mofile/1726156494193.png",
      "protein": "26",
      "fat": "7",
      "pc_list_thum_url": "/upload/product/pcthum/1726156473606.png",
      "fat_ratio": "47",
      "pc_list_image_url": "/upload/product/pcList/1726156467882.png",
      "pc_image_url": "/upload/product/pcfile/1726156478441.png",
      "weight": "289",
      "volume": "",
      "sodium": "1508",
      "volume_ratio": "",
      "calorie": "663",
      "eng_name": "McCrispy<sub class=reg>™</sub> Sriracha Mayo",
      "seq_txt": "",
      "sodium_ratio": "75",
      "status": "Y",
      "next": null,
      "open_time_start": "2024.09.13 00:00",
      "caffeine_ratio": "",
      "mo_kor_alt": "신제품",
      "mo_list_eng_alt": "NEW",
      "sizeList": [],
      "mo_eng_alt": "NEW",
      "mo_list_kor_alt": "신제품",
      "mo_list_image_url": "/upload/product/molist/1726156487531.png",
      "calorie_ratio": "",
      "weight_ratio": "",
      "caffeine": "",
      "modadmin": 0,
      "od": 0,
      "open_time_end": "2024.11.06 23:59",
      "subCategoryList": [],
      "oldcode": "",
      "seq": 622,
      "regadmin": 17,
      "rnum": 1,
      "carbohydrate_ratio": "15",
      "kor_content": "빠삭한 100% 통닭다리살 케이준 패티에 <br>\r\n스리라차 마요 소스를 더해 매콤 고소한 맛!\r\n<br><br>\r\n*판매 시간: 오전 10시 30분 ~ 새벽 4시",
      "pc_list_eng_alt": "NEW",
      "pc_list_kor_alt": "신제품",
      "eng_origin": "",
      "status_txt": "",
      "kor_name": "맥크리스피<sub class=reg>™</sub> 스리라차 마요",
      "pc_eng_alt": "NEW",
      "protein_ratio": "47",
      "regdate": "2024-09-13",
      "sub_category_seq": 0
    },
    {
      "eng_content": "An even deeper and flavorful taste of a special Bacon <br>Tomato Deluxe with spicy Sriracha Mayo sauce.\r\n<br><br>\r\n*Available from 10:30AM~4AM",
      "kor_origin": "",
      "allegyList": [],
      "name_txt": "",
      "materialList": [],
      "prev": null,
      "carbohydrate": "13",
      "moddate": "2024-10-29",
      "pc_kor_alt": "신제품",
      "mo_image_url": "/upload/product/mofile/1726157119756.png",
      "protein": "29",
      "fat": "12",
      "pc_list_thum_url": "/upload/product/pcthum/1726157099860.png",
      "fat_ratio": "80",
      "pc_list_image_url": "/upload/product/pcList/1726157097019.png",
      "pc_image_url": "/upload/product/pcfile/1726157106563.png",
      "weight": "251",
      "volume": "",
      "sodium": "985",
      "volume_ratio": "",
      "calorie": "621",
      "eng_name": "Bacon Tomato Deluxe Sriracha Mayo",
      "seq_txt": "",
      "sodium_ratio": "49",
      "status": "Y",
      "next": null,
      "open_time_start": "2024.09.13 00:00",
      "caffeine_ratio": "",
      "mo_kor_alt": "신제품",
      "mo_list_eng_alt": "NEW",
      "sizeList": [],
      "mo_eng_alt": "NEW",
      "mo_list_kor_alt": "신제품",
      "mo_list_image_url": "/upload/product/molist/1726157116793.png",
      "calorie_ratio": "",
      "weight_ratio": "",
      "caffeine": "",
      "modadmin": 0,
      "od": 1,
      "open_time_end": "2024.11.06 23:59",
      "subCategoryList": [],
      "oldcode": "",
      "seq": 625,
      "regadmin": 17,
      "rnum": 2,
      "carbohydrate_ratio": "13",
      "kor_content": "베이컨 토마토 디럭스에 <br>\r\n스리라차 마요 소스를 더해 색다른 매콤함!\r\n<br><br>\r\n*판매 시간: 오전 10시 30분 ~ 새벽 4시",
      "pc_list_eng_alt": "NEW",
      "pc_list_kor_alt": "신제품",
      "eng_origin": "",
      "status_txt": "",
      "kor_name": "베토디 스리라차 마요",
      "pc_eng_alt": "NEW",
      "protein_ratio": "52",
      "regdate": "2024-09-13",
      "sub_category_seq": 0
    },
    {
      "eng_content": "100% chicken breast patty coated with rice crumble & spicy seasoning!<br>\r\nCrunchy lettuce and fresh tomatoes!<br>\r\nCrisp and tastier NEW McSpicy Shanghai Burger.\r\n<br><br>\r\n*Available from 10:30AM~4AM",
      "kor_origin": "",
      "allegyList": [],
      "name_txt": "",
      "materialList": [],
      "prev": null,
      "carbohydrate": "9",
      "moddate": "2024-08-13",
      "pc_kor_alt": "맥스파이시 상하이 버거 제품 사진",
      "mo_image_url": "/upload/product/mofile/1717486388230.png",
      "protein": "24",
      "fat": "3",
      "pc_list_thum_url": "/upload/product/pcthum/1717486370571.png",
      "fat_ratio": "17",
      "pc_list_image_url": "/upload/product/pcList/1717486365975.png",
      "pc_image_url": "/upload/product/pcfile/1717486375819.png",
      "weight": "246",
      "volume": "",
      "sodium": "1102",
      "volume_ratio": "",
      "calorie": "501",
      "eng_name": "McSpicy<sub class=reg>®</sub> Shanghai Burger",
      "seq_txt": "",
      "sodium_ratio": "55",
      "status": "Y",
      "next": null,
      "open_time_start": "2024.06.05 00:00",
      "caffeine_ratio": "",
      "mo_kor_alt": "맥스파이시 상하이 버거 제품 사진",
      "mo_list_eng_alt": "McSpicy Shanghai Burger",
      "sizeList": [],
      "mo_eng_alt": "McSpicy Shanghai Burger",
      "mo_list_kor_alt": "맥스파이시 상하이 버거",
      "mo_list_image_url": "/upload/product/molist/1717486381629.png",
      "calorie_ratio": "",
      "weight_ratio": "",
      "caffeine": "",
      "modadmin": 0,
      "od": 2,
      "open_time_end": "2099.06.30 00:00",
      "subCategoryList": [],
      "oldcode": "",
      "seq": 602,
      "regadmin": 17,
      "rnum": 3,
      "carbohydrate_ratio": "9",
      "kor_content": "쌀가루가 더해져 더 바삭해진 100% 닭가슴살 패티에<br>\r\n아삭아삭한 양상추와 신선한 토마토까지!<br>\r\n더 바삭하고 맛있어진 NEW 맥스파이시 상하이 버거로<br>\r\n입맛도 기분도 화끈하게!\r\n<br><br>\r\n*판매 시간: 10:30AM~4AM",
      "pc_list_eng_alt": "McSpicy Shanghai Burger",
      "pc_list_kor_alt": "맥스파이시 상하이 버거",
      "eng_origin": "",
      "status_txt": "",
      "kor_name": "맥스파이시<sub class=reg>®</sub> 상하이 버거",
      "pc_eng_alt": "McSpicy Shanghai Burger",
      "protein_ratio": "44",
      "regdate": "2024-06-04",
      "sub_category_seq": 0
    },
    {
      "eng_content": "An even greater harmony of fresh tomato and savory cheeseburger\r\n<br><br>\r\n*Available from 10:30AM~4AM",
      "kor_origin": "",
      "allegyList": [],
      "name_txt": "",
      "materialList": [],
      "prev": null,
      "carbohydrate": "11",
      "moddate": "2024-06-12",
      "pc_kor_alt": "신제품 토마토 치즈 비프 버거 제품 사진",
      "mo_image_url": "/upload/product/mofile/1717567323076.png",
      "protein": "18",
      "fat": "7",
      "pc_list_thum_url": "/upload/product/pcthum/1717567310959.png",
      "fat_ratio": "44",
      "pc_list_image_url": "/upload/product/pcList/1717567307596.png",
      "pc_image_url": "/upload/product/pcfile/1717567315213.png",
      "weight": "200",
      "volume": "",
      "sodium": "682",
      "volume_ratio": "",
      "calorie": "403",
      "eng_name": "Tomato Cheese Beef Burger",
      "seq_txt": "",
      "sodium_ratio": "34",
      "status": "Y",
      "next": null,
      "open_time_start": "2024.06.13 00:00",
      "caffeine_ratio": "",
      "mo_kor_alt": "신제품 토마토 치즈 비프 버거 제품 사진",
      "mo_list_eng_alt": "NEW",
      "sizeList": [],
      "mo_eng_alt": "NEW Tomato Cheese Beef Burger",
      "mo_list_kor_alt": "신제",
      "mo_list_image_url": "/upload/product/molist/1717567319049.png",
      "calorie_ratio": "",
      "weight_ratio": "",
      "caffeine": "",
      "modadmin": 17,
      "od": 3,
      "open_time_end": "2055.06.30 00:00",
      "subCategoryList": [],
      "oldcode": "",
      "seq": 605,
      "regadmin": 17,
      "rnum": 4,
      "carbohydrate_ratio": "11",
      "kor_content": "신선한 토마토와 고소한 치즈버거의 조화\r\n<br><br>\r\n*판매 시간: 10:30AM~4AM",
      "pc_list_eng_alt": "NEW",
      "pc_list_kor_alt": "신제품",
      "eng_origin": "",
      "status_txt": "",
      "kor_name": "토마토 치즈 비프 버거",
      "pc_eng_alt": "NEW Tomato Cheese Beef Burger",
      "protein_ratio": "32",
      "regdate": "2024-06-05",
      "sub_category_seq": 0
    },
    {
      "eng_content": "Double up the enjoyment with double quarter pound beef patties.<br>\r\nSpecially selected juicy, prime 100% pure beef patties<br> \r\nsimply seasoned with original taste and two slices of melty cheese.<br>\r\n<br>\r\n*Available from 10:30AM to 4AM",
      "kor_origin": "",
      "allegyList": [],
      "name_txt": "",
      "materialList": [],
      "prev": null,
      "carbohydrate": "10",
      "moddate": "2024-04-24",
      "pc_kor_alt": "더블 쿼터파운더 치즈 제품 사진",
      "mo_image_url": "/upload/product/mofile/1583727513382.png",
      "protein": "50",
      "fat": "20",
      "pc_list_thum_url": "/upload/product/pcthum/1583727493820.png",
      "fat_ratio": "136",
      "pc_list_image_url": "/upload/product/pcList/1583727487454.png",
      "pc_image_url": "/upload/product/pcfile/1583727501907.png",
      "weight": "275",
      "volume": "",
      "sodium": "1151",
      "volume_ratio": "",
      "calorie": "770",
      "eng_name": "Double Quarter Pounder<sub class=reg>®</sub> with Cheese",
      "seq_txt": "",
      "sodium_ratio": "58",
      "status": "Y",
      "next": null,
      "open_time_start": "2013.11.27 00:00",
      "caffeine_ratio": "",
      "mo_kor_alt": "더블 쿼터파운더 치즈 제품 사진",
      "mo_list_eng_alt": "Double Quarter Pounder with Cheese",
      "sizeList": [],
      "mo_eng_alt": "Double Quarter Pounder with Cheese product photo",
      "mo_list_kor_alt": "더블 쿼터파운더 치즈",
      "mo_list_image_url": "/upload/product/molist/1583727508397.png",
      "calorie_ratio": "",
      "weight_ratio": "",
      "caffeine": "",
      "modadmin": 0,
      "od": 190,
      "open_time_end": "9999.12.31 00:00",
      "subCategoryList": [],
      "oldcode": "bg06",
      "seq": 18,
      "regadmin": 0,
      "rnum": 5,
      "carbohydrate_ratio": "10",
      "kor_content": "좋아하는건 더 많이 즐기시라고, <br>두 배 이상 커진 1/4 파운드<br>\r\n비프 패티가 두 장 (226그램)! <br>육즙이 풍부한 고기 맛을<br>\r\n그대로 살린 100% 순 쇠고기 패티 두 장과 <br>치즈 두 장이 입안 가득 완벽하게 조화되는 놀라운 맛<br>\r\n<br>\r\n*판매 시간: 10:30AM~4AM",
      "pc_list_eng_alt": "Double Quarter Pounder with Cheese",
      "pc_list_kor_alt": "더블 쿼터파운더 치즈",
      "eng_origin": "",
      "status_txt": "",
      "kor_name": "더블 쿼터파운더<sub>®</sub> 치즈",
      "pc_eng_alt": "Double Quarter Pounder with Cheese product photo",
      "protein_ratio": "91",
      "regdate": "2019-05-30",
      "sub_category_seq": 0
    },
    {
      "eng_content": "A quarter pound of juicy, 100% beef simply seasoned <br>\r\nwith a pinch of salt and pepper, two slices of melty cheese, <br>\r\nslivered onions and tangy pickles all on a sesame seed bun.<br>\r\n<br>\r\n*Available from 10:30AM to 4AM",
      "kor_origin": "",
      "allegyList": [],
      "name_txt": "",
      "materialList": [],
      "prev": null,
      "carbohydrate": "10",
      "moddate": "2024-04-24",
      "pc_kor_alt": "쿼터파운더 치즈 제품 사진",
      "mo_image_url": "/upload/product/mofile/1583728221336.png",
      "protein": "31",
      "fat": "13",
      "pc_list_thum_url": "/upload/product/pcthum/1583728190972.png",
      "fat_ratio": "86",
      "pc_list_image_url": "/upload/product/pcList/1583728183515.png",
      "pc_image_url": "/upload/product/pcfile/1583728200175.png",
      "weight": "198",
      "volume": "",
      "sodium": "966",
      "volume_ratio": "",
      "calorie": "536",
      "eng_name": "Quarter Pounder<sub class=reg>®</sub> with Cheese",
      "seq_txt": "",
      "sodium_ratio": "48",
      "status": "Y",
      "next": null,
      "open_time_start": "2013.11.27 00:00",
      "caffeine_ratio": "",
      "mo_kor_alt": "쿼터파운더 치즈 제품 사진",
      "mo_list_eng_alt": "Quarter Pounder with Cheese",
      "sizeList": [],
      "mo_eng_alt": "Quarter Pounder with Cheese product photo",
      "mo_list_kor_alt": "쿼터파운더 치즈",
      "mo_list_image_url": "/upload/product/molist/1583728208409.png",
      "calorie_ratio": "",
      "weight_ratio": "",
      "caffeine": "",
      "modadmin": 0,
      "od": 180,
      "open_time_end": "9999.12.31 00:00",
      "subCategoryList": [],
      "oldcode": "bg02",
      "seq": 16,
      "regadmin": 0,
      "rnum": 6,
      "carbohydrate_ratio": "10",
      "kor_content": "쿼터파운더라는 이름에서 알 수 있듯이 <br>두 배 이상 커진\r\n1/4파운드(113그램) 비프와 <br>부드러운 치즈 두 장의 환상궁합!<br>\r\n두툼한 순 쇠고기 패티와 신선한 치즈의 <br>풍부한 맛으로 세계적으로 사랑받고 있는 <br>맥도날드의 대표적인 프리미엄 버거<br>\r\n<br>\r\n*판매 시간: 10:30AM~4AM",
      "pc_list_eng_alt": "Quarter Pounder with Cheese",
      "pc_list_kor_alt": "쿼터파운더 치즈",
      "eng_origin": "",
      "status_txt": "",
      "kor_name": "쿼터파운더<sub class=reg>®</sub> 치즈",
      "pc_eng_alt": "Quarter Pounder with Cheese product photo",
      "protein_ratio": "56",
      "regdate": "2019-05-30",
      "sub_category_seq": 0
    }
  ]
}
