{
  "totalPage": 4,
  "page": 2,
  "is_ok": "ok",
  "totalCount": 21,
  "list": [
    {
      "eng_content": "A double layer of sear-sizzled 100% pure beef <br>\r\nmingled with a special sauce on a sesame seed bun <br>\r\nand topped with melty cheese, crisp lettuce, <br>\r\nminced onions and tangy pickles.<br>\r\n<br>\r\n*Available from 10:30AM to 4AM",
      "kor_origin": "",
      "allegyList": [],
      "name_txt": "",
      "materialList": [],
      "prev": null,
      "carbohydrate": "8",
      "moddate": "2024-04-24",
      "pc_kor_alt": "빅맥 제품 사진",
      "mo_image_url": "/upload/product/mofile/1583727868967.png",
      "protein": "27",
      "fat": "11",
      "pc_list_thum_url": "/upload/product/pcthum/1583727848735.png",
      "fat_ratio": "71",
      "pc_list_image_url": "/upload/product/pcList/1583727841393.png",
      "pc_image_url": "/upload/product/pcfile/1583727855319.png",
      "weight": "223",
      "volume": "",
      "sodium": "902",
      "volume_ratio": "",
      "calorie": "582",
      "eng_name": "Big Mac<sub class=reg>®</sub>",
      "seq_txt": "",
      "sodium_ratio": "45",
      "status": "Y",
      "next": null,
      "open_time_start": "2013.11.27 00:00",
      "caffeine_ratio": "",
      "mo_kor_alt": "빅맥 제품 사진",
      "mo_list_eng_alt": "Big Mac",
      "sizeList": [],
      "mo_eng_alt": "Big Mac product photo",
      "mo_list_kor_alt": "빅맥",
      "mo_list_image_url": "/upload/product/molist/1583727862456.png",
      "calorie_ratio": "",
      "weight_ratio": "",
      "caffeine": "",
      "modadmin": 0,
      "od": 190,
      "open_time_end": "9999.12.31 00:00",
      "subCategoryList": [],
      "oldcode": "bg01",
      "seq": 15,
      "regadmin": 0,
      "rnum": 7,
      "carbohydrate_ratio": "8",
      "kor_content": "100% 순 쇠고기 패티 두 장에 빅맥<sub class=reg>®</sub>만의  특별한 소스.</br>입안에서 살살 녹는 치즈와 신선한 양상추, 양파, 그리고 피클까지.</br>50년 넘게 전 세계인의 입맛을 사로 잡은 버거의 대명사.<br>\r\n<br>\r\n*판매 시간: 10:30AM~4AM",
      "pc_list_eng_alt": "Big Mac",
      "pc_list_kor_alt": "빅맥",
      "eng_origin": "",
      "status_txt": "",
      "kor_name": "빅맥<sub class=reg>®</sub>",
      "pc_eng_alt": "Big Mac product photo",
      "protein_ratio": "49",
      "regdate": "2019-05-30",
      "sub_category_seq": 0
    },
    {
      "eng_content": "Thick, whole-chicken thigh and drumstick meat, <br>\r\nflavored with zesty Cajun seasoning, is deep-fried for the patty <br>\r\nthat is crispy on the outside, but juicy inside. <br>\r\nChicken burger’s best-match, chewy brioche potato buns, <br>\r\nfresh tomato and lettuce, topped with smooth, <br>smoky-flavor special sauce, \r\ncomplete our full and zesty-flavored chicken burger.\r\n<br><br>*selling time : 10:30AM~4AM",
      "kor_origin": "",
      "allegyList": [],
      "name_txt": "",
      "materialList": [],
      "prev": null,
      "carbohydrate": "15",
      "moddate": "2024-08-13",
      "pc_kor_alt": "신제품 맥크리스피 디럭스 버거 제품 사진",
      "mo_image_url": "/upload/product/mofile/1653436820520.png",
      "protein": "23",
      "fat": "4.7",
      "pc_list_thum_url": "/upload/product/pcthum/1653436839082.png",
      "fat_ratio": "31",
      "pc_list_image_url": "/upload/product/pcList/1653436835912.png",
      "pc_image_url": "/upload/product/pcfile/1653436847042.png",
      "weight": "276",
      "volume": "",
      "sodium": "1344",
      "volume_ratio": "",
      "calorie": "614",
      "eng_name": "McCrispy<sub class=reg>™</sub> Deluxe Burger",
      "seq_txt": "",
      "sodium_ratio": "67",
      "status": "Y",
      "next": null,
      "open_time_start": "2022.05.26 00:00",
      "caffeine_ratio": "",
      "mo_kor_alt": "신제품 맥크리스피 디럭스 버거 제품 사진",
      "mo_list_eng_alt": "New",
      "sizeList": [],
      "mo_eng_alt": "New McCrispy Deluxe Burger product photo",
      "mo_list_kor_alt": "신제품",
      "mo_list_image_url": "/upload/product/molist/1653436806801.png",
      "calorie_ratio": "",
      "weight_ratio": "",
      "caffeine": "",
      "modadmin": 0,
      "od": 3,
      "open_time_end": "2099.12.31 00:00",
      "subCategoryList": [],
      "oldcode": "",
      "seq": 469,
      "regadmin": 17,
      "rnum": 8,
      "carbohydrate_ratio": "15",
      "kor_content": "100% 통닭다리살 겉바속촉 케이준 치킨 패티, <br>\r\n촉촉한 포테이토 브리오쉬 번, 스페셜 스모키 소스가 <br>선사하는 놀랍도록 새로운 맛의 치킨 버거!\r\n<br><br>*판매 시간: 10:30AM~4AM",
      "pc_list_eng_alt": "New",
      "pc_list_kor_alt": "신제품",
      "eng_origin": "",
      "status_txt": "",
      "kor_name": "맥크리스피<sub class=reg>™</sub> 디럭스 버거",
      "pc_eng_alt": "New McCrispy Deluxe Burger product photo",
      "protein_ratio": "42",
      "regdate": "2022-05-25",
      "sub_category_seq": 0
    },
    {
      "eng_content": "Thick, whole-chicken thigh and drumstick meat, <br>\r\nflavored with zesty Cajun seasoning, is deep-fried for the patty<br>\r\n that is crispy on the outside, but juicy inside. <br>\r\nChicken burger’s best-match, chewy brioche potato buns, <br>\r\ntopped with smooth, smoky-flavor special sauce, <br>\r\ncomplete our full and zesty-flavored chicken burger.\r\n<br><br>*selling time : 10:30AM~4AM",
      "kor_origin": "",
      "allegyList": [],
      "name_txt": "",
      "materialList": [],
      "prev": null,
      "carbohydrate": "14",
      "moddate": "2024-08-13",
      "pc_kor_alt": "신제품 맥크리스피 클래식 버거 제품 사진",
      "mo_image_url": "/upload/product/mofile/1653436612287.png",
      "protein": "23",
      "fat": "4.7",
      "pc_list_thum_url": "/upload/product/pcthum/1653436578916.png",
      "fat_ratio": "31",
      "pc_list_image_url": "/upload/product/pcList/1653436573153.png",
      "pc_image_url": "/upload/product/pcfile/1653436587840.png",
      "weight": "210",
      "volume": "",
      "sodium": "1332",
      "volume_ratio": "",
      "calorie": "603",
      "eng_name": "McCrispy<sub class=reg>™</sub> Classic Burger",
      "seq_txt": "",
      "sodium_ratio": "67",
      "status": "Y",
      "next": null,
      "open_time_start": "2022.05.26 00:00",
      "caffeine_ratio": "",
      "mo_kor_alt": "신제품 맥크리스피 클래식 버거 제품 사진",
      "mo_list_eng_alt": "New",
      "sizeList": [],
      "mo_eng_alt": "New McCrispy Classic Burger product photo",
      "mo_list_kor_alt": "신제품",
      "mo_list_image_url": "/upload/product/molist/1653436602854.png",
      "calorie_ratio": "",
      "weight_ratio": "",
      "caffeine": "",
      "modadmin": 0,
      "od": 4,
      "open_time_end": "2099.12.31 00:00",
      "subCategoryList": [],
      "oldcode": "",
      "seq": 468,
      "regadmin": 17,
      "rnum": 9,
      "carbohydrate_ratio": "14",
      "kor_content": "100% 통닭다리살 겉바속촉 케이준 치킨 패티! <br>\r\n치킨 버거 본연의 맛에 충실한 클래식 버거\r\n<br><br>*판매 시간: 10:30AM~4AM",
      "pc_list_eng_alt": "New",
      "pc_list_kor_alt": "신제품",
      "eng_origin": "",
      "status_txt": "",
      "kor_name": "맥크리스피<sub class=reg>™</sub> 클래식 버거",
      "pc_eng_alt": "New McCrispy Classic Burger product photo",
      "protein_ratio": "41",
      "regdate": "2022-05-25",
      "sub_category_seq": 0
    },
    {
      "eng_content": "113g of thick beef patty, deep flavor of grilled onion with special 1955 sauce! </br> \r\nThe taste of 1955 since McDonald’s began </br> \r\nEternal original 1955 burger<br>\r\n<br>\r\n*Available from 10:30AM to 4AM",
      "kor_origin": "",
      "allegyList": [],
      "name_txt": "",
      "materialList": [],
      "prev": null,
      "carbohydrate": "15",
      "moddate": "2024-04-24",
      "pc_kor_alt": "1955 버거 제품 사진",
      "mo_image_url": "/upload/product/mofile/1599182712709.png",
      "protein": "29",
      "fat": "10",
      "pc_list_thum_url": "/upload/product/pcthum/1583727169054.png",
      "fat_ratio": "68",
      "pc_list_image_url": "/upload/product/pcList/1599119588089.png",
      "pc_image_url": "/upload/product/pcfile/1599119647587.png",
      "weight": "264",
      "volume": "",
      "sodium": "930",
      "volume_ratio": "",
      "calorie": "572",
      "eng_name": "1955<sub>®</sub> Burger",
      "seq_txt": "",
      "sodium_ratio": "47",
      "status": "Y",
      "next": null,
      "open_time_start": "2013.11.27 00:00",
      "caffeine_ratio": "",
      "mo_kor_alt": "1955 버거 제품 사진",
      "mo_list_eng_alt": "1955 Burger",
      "sizeList": [],
      "mo_eng_alt": "1955 Burger product photo",
      "mo_list_kor_alt": "1955 버거",
      "mo_list_image_url": "/upload/product/molist/1599182697524.png",
      "calorie_ratio": "",
      "weight_ratio": "",
      "caffeine": "",
      "modadmin": 0,
      "od": 10,
      "open_time_end": "9999.12.31 00:00",
      "subCategoryList": [],
      "oldcode": "1955b1",
      "seq": 1,
      "regadmin": 0,
      "rnum": 10,
      "carbohydrate_ratio": "15",
      "kor_content": "113g 두툼한 순 쇠고기 패티,<br>\r\n특별한 1955 소스에 깊은 풍미의 그릴드 어니언까지!<br>\r\n맥도날드가 처음 생긴 1955년의 맛을 담은<br>\r\n영원한 오리지널 1955 버거<br>\r\n\r\n</br>\r\n*판매 시간: 10:30AM~4AM",
      "pc_list_eng_alt": "1955 Burger",
      "pc_list_kor_alt": "1955 버거",
      "eng_origin": "",
      "status_txt": "",
      "kor_name": "1955<sub>®</sub> 버거",
      "pc_eng_alt": "1955 Burger product photo",
      "protein_ratio": "53",
      "regdate": "2019-05-30",
      "sub_category_seq": 0
    },
    {
      "eng_content": "Here comes our new and impressively tasty McChicken Mozzarella that features big McChicken,<br>two Golden Mozzarella cheese sticks, and spicy Arabian-inspired sauce.<br>\r\n<br>\r\n*Available from 10:30AM to 4AM",
      "kor_origin": "",
      "allegyList": [],
      "name_txt": "",
      "materialList": [],
      "prev": null,
      "carbohydrate": "18",
      "moddate": "2024-04-23",
      "pc_kor_alt": "맥치킨® 모짜렐라 제품 사진",
      "mo_image_url": "/upload/product/mofile/1583727670352.png",
      "protein": "31",
      "fat": "7",
      "pc_list_thum_url": "/upload/product/pcthum/1583727642088.png",
      "fat_ratio": "47",
      "pc_list_image_url": "/upload/product/pcList/1583727633823.png",
      "pc_image_url": "/upload/product/pcfile/1583727649835.png",
      "weight": "293",
      "volume": "",
      "sodium": "1742",
      "volume_ratio": "",
      "calorie": "743",
      "eng_name": "McChicken<sub class=reg>®</sub> Mozzarella",
      "seq_txt": "",
      "sodium_ratio": "87",
      "status": "Y",
      "next": null,
      "open_time_start": "2019.10.10 00:00",
      "caffeine_ratio": "",
      "mo_kor_alt": "맥치킨® 모짜렐라 제품 사진",
      "mo_list_eng_alt": "McChicken® Mozzarella",
      "sizeList": [],
      "mo_eng_alt": "McChicken® Mozzarella product photo",
      "mo_list_kor_alt": "맥치킨® 모짜렐라",
      "mo_list_image_url": "/upload/product/molist/1583727656443.png",
      "calorie_ratio": "",
      "weight_ratio": "",
      "caffeine": "",
      "modadmin": 0,
      "od": 0,
      "open_time_end": "9999.01.01 00:00",
      "subCategoryList": [],
      "oldcode": "",
      "seq": 292,
      "regadmin": 4,
      "rnum": 11,
      "carbohydrate_ratio": "18",
      "kor_content": "든든한 맥치킨에 골든 모짜렐라 치즈 스틱 2개와</br>매콤한 아라비아따 소스를 더해</br>강렬하게 재탄생한 맥치킨 모짜렐라!<br>\r\n<br>\r\n*판매 시간: 10:30AM~4AM",
      "pc_list_eng_alt": "McChicken® Mozzarella",
      "pc_list_kor_alt": "맥치킨® 모짜렐라",
      "eng_origin": "",
      "status_txt": "",
      "kor_name": "맥치킨<sub class=reg>®</sub> 모짜렐라",
      "pc_eng_alt": "McChicken® Mozzarella product photo",
      "protein_ratio": "56",
      "regdate": "2019-10-08",
      "sub_category_seq": 0
    },
    {
      "eng_content": "Taste the crispy chicken patty, savory white mayo sauce and crunch lettuce.<br>McChicken is back with upgraded tastes!<br>\r\n<br>\r\n*Available from 10:30AM to 4AM",
      "kor_origin": "",
      "allegyList": [],
      "name_txt": "",
      "materialList": [],
      "prev": null,
      "carbohydrate": "7",
      "moddate": "2024-04-23",
      "pc_kor_alt": "맥치킨 제품 사진",
      "mo_image_url": "/upload/product/mofile/1583730345091.png",
      "protein": "21",
      "fat": "3",
      "pc_list_thum_url": "/upload/product/pcthum/1583730328298.png",
      "fat_ratio": "21",
      "pc_list_image_url": "/upload/product/pcList/1583730322955.png",
      "pc_image_url": "/upload/product/pcfile/1583730334543.png",
      "weight": "206",
      "volume": "",
      "sodium": "1084",
      "volume_ratio": "",
      "calorie": "523",
      "eng_name": "McChicken<sub class=reg>®</sub>",
      "seq_txt": "",
      "sodium_ratio": "54",
      "status": "Y",
      "next": null,
      "open_time_start": "2019.10.10 00:00",
      "caffeine_ratio": "",
      "mo_kor_alt": "맥치킨 제품 사진",
      "mo_list_eng_alt": "McChicken",
      "sizeList": [],
      "mo_eng_alt": "McChicken product photo",
      "mo_list_kor_alt": "맥치킨",
      "mo_list_image_url": "/upload/product/molist/1583730340236.png",
      "calorie_ratio": "",
      "weight_ratio": "",
      "caffeine": "",
      "modadmin": 0,
      "od": 0,
      "open_time_end": "9999.01.01 00:00",
      "subCategoryList": [],
      "oldcode": "",
      "seq": 290,
      "regadmin": 4,
      "rnum": 12,
      "carbohydrate_ratio": "7",
      "kor_content": "바삭한 치킨 패티, 고소한 화이트 마요 소스와</br>아삭한 양상추가 함께!</br>더 업그레이드된 맛으로 돌아온 맥치킨<br>\r\n<br>*판매 시간: 10:30AM~4AM",
      "pc_list_eng_alt": "McChicken",
      "pc_list_kor_alt": "맥치킨",
      "eng_origin": "",
      "status_txt": "",
      "kor_name": "맥치킨<sub class=reg>®</sub>",
      "pc_eng_alt": "McChicken product photo",
      "protein_ratio": "38",
      "regdate": "2019-10-08",
      "sub_category_seq": 0
    }
  ]
}
