{
  "totalPage": 4,
  "page": 3,
  "is_ok": "ok",
  "totalCount": 21,
  "list": [
    {
      "eng_content": "Fire up your taste buds with two patties marinated <br>\r\nin Korean’s favorite Bulgogi sauce, <br>\r\nmelty cheese, creamy mayo and crisp lettuce.<br>\r\n<br>\r\n*Available from 10:30AM to 4AM",
      "kor_origin": "",
      "allegyList": [],
      "name_txt": "",
      "materialList": [],
      "prev": null,
      "carbohydrate": "15",
      "moddate": "2024-04-24",
      "pc_kor_alt": "더블 불고기 버거 제품 사진",
      "mo_image_url": "/upload/product/mofile/1583727333148.png",
      "protein": "26",
      "fat": "13",
      "pc_list_thum_url": "/upload/product/pcthum/1583727305114.png",
      "fat_ratio": "86",
      "pc_list_image_url": "/upload/product/pcList/1583727299888.png",
      "pc_image_url": "/upload/product/pcfile/1583727313256.png",
      "weight": "237",
      "volume": "",
      "sodium": "997",
      "volume_ratio": "",
      "calorie": "635",
      "eng_name": "Double Bulgogi Burger",
      "seq_txt": "",
      "sodium_ratio": "50",
      "status": "Y",
      "next": null,
      "open_time_start": "2013.11.27 00:00",
      "caffeine_ratio": "",
      "mo_kor_alt": "더블 불고기 버거 제품 사진",
      "mo_list_eng_alt": "Doubble Bulgogi Burger",
      "sizeList": [],
      "mo_eng_alt": "Doubble Bulgogi Burger product photo",
      "mo_list_kor_alt": "더블 불고기 버거",
      "mo_list_image_url": "/upload/product/molist/1583727321113.png",
      "calorie_ratio": "",
      "weight_ratio": "",
      "caffeine": "",
      "modadmin": 0,
      "od": 140,
      "open_time_end": "9999.12.31 00:00",
      "subCategoryList": [],
      "oldcode": "bg12",
      "seq": 21,
      "regadmin": 0,
      "rnum": 13,
      "carbohydrate_ratio": "15",
      "kor_content": "진한 불고기 소스의 패티가 두 장!<br>\r\n여기에 고소한 치즈와 마요네즈, <br>\r\n신선한 양상추를 곁들인 깊고 풍부한 맛.<br>\r\n<br>\r\n*판매 시간: 10:30AM~4AM",
      "pc_list_eng_alt": "Doubble Bulgogi Burger",
      "pc_list_kor_alt": "더블 불고기 버거",
      "eng_origin": "",
      "status_txt": "",
      "kor_name": "더블 불고기 버거",
      "pc_eng_alt": "Doubble Bulgogi Burger product photo",
      "protein_ratio": "48",
      "regdate": "2019-05-30",
      "sub_category_seq": 0
    },
    {
      "eng_content": "Fire up your taste buds with a patty marinated <br>\r\nin Korean’s favorite Bulgogi sauce,\r\ncreamy mayo and crisp lettuce.<br>\r\n<br>\r\n*Available from 10:30AM to 4AM",
      "kor_origin": "",
      "allegyList": [],
      "name_txt": "",
      "materialList": [],
      "prev": null,
      "carbohydrate": "14",
      "moddate": "2024-08-26",
      "pc_kor_alt": "불고기 버거 제품 사진",
      "mo_image_url": "/upload/product/mofile/1583727818443.png",
      "protein": "14",
      "fat": "6",
      "pc_list_thum_url": "/upload/product/pcthum/1583727797998.png",
      "fat_ratio": "37",
      "pc_list_image_url": "/upload/product/pcList/1583727790570.png",
      "pc_image_url": "/upload/product/pcfile/1583727805044.png",
      "weight": "167",
      "volume": "",
      "sodium": "670",
      "volume_ratio": "",
      "calorie": "409",
      "eng_name": "Bulgogi Burger",
      "seq_txt": "",
      "sodium_ratio": "33",
      "status": "Y",
      "next": null,
      "open_time_start": "2013.11.27 00:00",
      "caffeine_ratio": "",
      "mo_kor_alt": "불고기 버거 제품 사진",
      "mo_list_eng_alt": "Bulgogi Burger",
      "sizeList": [],
      "mo_eng_alt": "Bulgogi Burger product photo",
      "mo_list_kor_alt": "불고기 버거",
      "mo_list_image_url": "/upload/product/molist/1583727812006.png",
      "calorie_ratio": "",
      "weight_ratio": "",
      "caffeine": "",
      "modadmin": 0,
      "od": 130,
      "open_time_end": "9999.12.31 00:00",
      "subCategoryList": [],
      "oldcode": "bg11",
      "seq": 20,
      "regadmin": 0,
      "rnum": 14,
      "carbohydrate_ratio": "14",
      "kor_content": "한국인의 입맛에 딱 맞는 불고기 소스에 <br>잘 재운 패티와\r\n고소한 마요네즈, <br>신선한 양상추의 맛있는 조합.<br><br>\r\n\r\n*판매 시간 : 오전 10시 30분 ~ 새벽 4시",
      "pc_list_eng_alt": "Bulgogi Burger",
      "pc_list_kor_alt": "불고기 버거",
      "eng_origin": "",
      "status_txt": "",
      "kor_name": "불고기 버거",
      "pc_eng_alt": "Bulgogi Burger product photo",
      "protein_ratio": "26",
      "regdate": "2019-05-30",
      "sub_category_seq": 0
    },
    {
      "eng_content": "The standard of shrimp with real shrimps inside<br>\r\n<br>\r\n*Available from 10:30AM to 4AM",
      "kor_origin": "",
      "allegyList": [],
      "name_txt": "",
      "materialList": [],
      "prev": null,
      "carbohydrate": "13",
      "moddate": "2024-04-24",
      "pc_kor_alt": "슈슈 버거 제품 사진",
      "mo_image_url": "/upload/product/mofile/1583728019160.png",
      "protein": "12",
      "fat": "1.7",
      "pc_list_thum_url": "/upload/product/pcthum/1583727991669.png",
      "fat_ratio": "12",
      "pc_list_image_url": "/upload/product/pcList/1583727985443.png",
      "pc_image_url": "/upload/product/pcfile/1583727999760.png",
      "weight": "224",
      "volume": "",
      "sodium": "808",
      "volume_ratio": "",
      "calorie": "409",
      "eng_name": "Supreme Shrimp Burger",
      "seq_txt": "",
      "sodium_ratio": "40",
      "status": "Y",
      "next": null,
      "open_time_start": "2016.10.07 00:00",
      "caffeine_ratio": "",
      "mo_kor_alt": "슈슈 버거 제품 사진",
      "mo_list_eng_alt": "Supreme Shrimp Burger",
      "sizeList": [],
      "mo_eng_alt": "Supreme Shrimp Burger product photo",
      "mo_list_kor_alt": "슈슈 버거",
      "mo_list_image_url": "/upload/product/molist/1583728012116.png",
      "calorie_ratio": "",
      "weight_ratio": "",
      "caffeine": "",
      "modadmin": 0,
      "od": 50,
      "open_time_end": "9999.10.01 00:00",
      "subCategoryList": [],
      "oldcode": "J1005KqZYo",
      "seq": 91,
      "regadmin": 0,
      "rnum": 15,
      "carbohydrate_ratio": "13",
      "kor_content": "탱~글한 통새우살 가득~ 슈슈 버거!<br>\r\n<br>\r\n*판매 시간: 10:30AM~4AM",
      "pc_list_eng_alt": "Supreme Shrimp Burger",
      "pc_list_kor_alt": "슈슈 버거",
      "eng_origin": "",
      "status_txt": "",
      "kor_name": "슈슈 버거",
      "pc_eng_alt": "Supreme Shrimp Burger product photo",
      "protein_ratio": "22",
      "regdate": "2019-05-30",
      "sub_category_seq": 0
    },
    {
      "eng_content": "Real shrimp burger with more fulfilling beef patty <br>\r\n<br>\r\n*Available from 10:30AM to 4AM",
      "kor_origin": "",
      "allegyList": [],
      "name_txt": "",
      "materialList": [],
      "prev": null,
      "carbohydrate": "15",
      "moddate": "2024-04-24",
      "pc_kor_alt": "슈비 버거 제품 사진",
      "mo_image_url": "/upload/product/mofile/1583727933349.png",
      "protein": "20",
      "fat": "5",
      "pc_list_thum_url": "/upload/product/pcthum/1583727908484.png",
      "fat_ratio": "35",
      "pc_list_image_url": "/upload/product/pcList/1583727896884.png",
      "pc_image_url": "/upload/product/pcfile/1583727918778.png",
      "weight": "269",
      "volume": "",
      "sodium": "1001",
      "volume_ratio": "",
      "calorie": "540",
      "eng_name": "Shrimp Beef Burger",
      "seq_txt": "",
      "sodium_ratio": "50",
      "status": "Y",
      "next": null,
      "open_time_start": "2016.10.07 00:00",
      "caffeine_ratio": "",
      "mo_kor_alt": "슈비 버거 제품 사진",
      "mo_list_eng_alt": "Shrimp Beef Burger",
      "sizeList": [],
      "mo_eng_alt": "Shrimp Beef Burger product photo",
      "mo_list_kor_alt": "슈비 버거",
      "mo_list_image_url": "/upload/product/molist/1583727926627.png",
      "calorie_ratio": "",
      "weight_ratio": "",
      "caffeine": "",
      "modadmin": 0,
      "od": 60,
      "open_time_end": "9999.11.04 00:00",
      "subCategoryList": [],
      "oldcode": "R07248F0mo",
      "seq": 169,
      "regadmin": 0,
      "rnum": 16,
      "carbohydrate_ratio": "15",
      "kor_content": "탱~글한 통새우살에 비프 패티를 더해 푸짐하게~<br>슈비 버거<br>\r\n<br>\r\n*판매 시간: 10:30AM~4AM",
      "pc_list_eng_alt": "Shrimp Beef Burger",
      "pc_list_kor_alt": "슈비 버거",
      "eng_origin": "",
      "status_txt": "",
      "kor_name": "슈비 버거",
      "pc_eng_alt": "Shrimp Beef Burger product photo",
      "protein_ratio": "36",
      "regdate": "2019-05-30",
      "sub_category_seq": 0
    },
    {
      "eng_content": "Two 100% beef patties, a strip bacon layered with lettuce,<br> sweet and spicy chili sauce with one juicy slice of tomato <br>\r\n<br>\r\n*Available from 10:30AM to 4AM",
      "kor_origin": "",
      "allegyList": [],
      "name_txt": "",
      "materialList": [],
      "prev": null,
      "carbohydrate": "14",
      "moddate": "2024-04-24",
      "pc_kor_alt": "베이컨 토마토 디럭스 제품 사진",
      "mo_image_url": "/upload/product/mofile/1583727719515.png",
      "protein": "29",
      "fat": "11",
      "pc_list_thum_url": "/upload/product/pcthum/1583727698174.png",
      "fat_ratio": "72",
      "pc_list_image_url": "/upload/product/pcList/1583727690227.png",
      "pc_image_url": "/upload/product/pcfile/1583727707216.png",
      "weight": "247",
      "volume": "",
      "sodium": "933",
      "volume_ratio": "",
      "calorie": "570",
      "eng_name": "Bacon Tomato Deluxe",
      "seq_txt": "",
      "sodium_ratio": "47",
      "status": "Y",
      "next": null,
      "open_time_start": "2013.11.27 00:00",
      "caffeine_ratio": "",
      "mo_kor_alt": "베이컨 토마토 디럭스 제품 사진",
      "mo_list_eng_alt": "Bacon Tomato Deluxe",
      "sizeList": [],
      "mo_eng_alt": "Bacon Tomato Deluxe product photo",
      "mo_list_kor_alt": "베이컨 토마토 디럭스",
      "mo_list_image_url": "/upload/product/molist/1583727713838.png",
      "calorie_ratio": "",
      "weight_ratio": "",
      "caffeine": "",
      "modadmin": 0,
      "od": 200,
      "open_time_end": "9999.12.31 00:00",
      "subCategoryList": [],
      "oldcode": "bg03",
      "seq": 17,
      "regadmin": 0,
      "rnum": 17,
      "carbohydrate_ratio": "14",
      "kor_content": "두 장의 100% 순 쇠고기 패티에 그릴에 구워 <br/>더욱 고소한 1장의 베이컨을 얹고,<br/> 신선한 토마토와 양상추,<br/>매콤달콤한 스위트 칠리 소스, 치즈, 마요네즈를 더해<br/>더욱 풍부하고 신선한 맛의 프리미엄 버거.<br>\r\n<br>\r\n*판매 시간: 10:30AM~4AM",
      "pc_list_eng_alt": "Bacon Tomato Deluxe",
      "pc_list_kor_alt": "베이컨 토마토 디럭스",
      "eng_origin": "",
      "status_txt": "",
      "kor_name": "베이컨 토마토 디럭스",
      "pc_eng_alt": "Bacon Tomato Deluxe product photo",
      "protein_ratio": "52",
      "regdate": "2019-05-30",
      "sub_category_seq": 0
    },
    {
      "eng_content": "McDonald’s simple classic burger <br>\r\nwith melty cheese and juicy, 100% beef patty.<br>\r\n<br>\r\n*Available from 10:30AM to 4AM",
      "kor_origin": "",
      "allegyList": [],
      "name_txt": "",
      "materialList": [],
      "prev": null,
      "carbohydrate": "7",
      "moddate": "2024-08-26",
      "pc_kor_alt": "치즈버거 제품 사진",
      "mo_image_url": "/upload/product/mofile/1583728125001.png",
      "protein": "16",
      "fat": "6",
      "pc_list_thum_url": "/upload/product/pcthum/1583728108239.png",
      "fat_ratio": "40",
      "pc_list_image_url": "/upload/product/pcList/1583728092525.png",
      "pc_image_url": "/upload/product/pcfile/1583728101061.png",
      "weight": "115",
      "volume": "",
      "sodium": "612",
      "volume_ratio": "",
      "calorie": "318",
      "eng_name": "Cheeseburger",
      "seq_txt": "",
      "sodium_ratio": "31",
      "status": "Y",
      "next": null,
      "open_time_start": "2013.11.27 00:00",
      "caffeine_ratio": "",
      "mo_kor_alt": "치즈버거 제품 사진",
      "mo_list_eng_alt": "Cheeseburger",
      "sizeList": [],
      "mo_eng_alt": "Cheeseburger product photo",
      "mo_list_kor_alt": "치즈버거",
      "mo_list_image_url": "/upload/product/molist/1583728115533.png",
      "calorie_ratio": "",
      "weight_ratio": "",
      "caffeine": "",
      "modadmin": 0,
      "od": 230,
      "open_time_end": "9999.12.31 00:00",
      "subCategoryList": [],
      "oldcode": "bg13",
      "seq": 22,
      "regadmin": 0,
      "rnum": 18,
      "carbohydrate_ratio": "7",
      "kor_content": "고소하고 부드러운 치즈와 100% 순 쇠고기 패티,<br>\r\n맥도날드만의 심플한 클래식 치즈버거.<br>\r\n<br>\r\n*판매 시간 : 오전 10시 30분 ~ 새벽 4시",
      "pc_list_eng_alt": "Cheeseburger",
      "pc_list_kor_alt": "치즈버거",
      "eng_origin": "",
      "status_txt": "",
      "kor_name": "치즈버거",
      "pc_eng_alt": "Cheeseburger product photo",
      "protein_ratio": "29",
      "regdate": "2019-05-30",
      "sub_category_seq": 0
    }
  ]
}
