{
  "totalPage": 4,
  "page": 4,
  "is_ok": "ok",
  "totalCount": 21,
  "list": [
    {
      "eng_content": "McDonald’s Double Cheeseburger<br>\r\nwith melty cheese and juicy, 100% beef patty.<br>\r\n<br>\r\n*Available from 10:30AM to 4AM",
      "kor_origin": "",
      "allegyList": [],
      "name_txt": "",
      "materialList": [],
      "prev": null,
      "carbohydrate": "8",
      "moddate": "2024-04-24",
      "pc_kor_alt": "더블 치즈버거 제품 사진",
      "mo_image_url": "/upload/product/mofile/1583727433147.png",
      "protein": "27",
      "fat": "12",
      "pc_list_thum_url": "/upload/product/pcthum/1583727405200.png",
      "fat_ratio": "78",
      "pc_list_image_url": "/upload/product/pcList/1583727391012.png",
      "pc_image_url": "/upload/product/pcfile/1583727413936.png",
      "weight": "167",
      "volume": "",
      "sodium": "896",
      "volume_ratio": "",
      "calorie": "479",
      "eng_name": "Double Cheeseburger",
      "seq_txt": "",
      "sodium_ratio": "45",
      "status": "Y",
      "next": null,
      "open_time_start": "2013.11.27 00:00",
      "caffeine_ratio": "",
      "mo_kor_alt": "더블 치즈버거 제품 사진",
      "mo_list_eng_alt": "Double Cheeseburger",
      "sizeList": [],
      "mo_eng_alt": "Double Cheeseburger product photo",
      "mo_list_kor_alt": "더블 치즈버거",
      "mo_list_image_url": "/upload/product/molist/1583727427041.png",
      "calorie_ratio": "",
      "weight_ratio": "",
      "caffeine": "",
      "modadmin": 0,
      "od": 240,
      "open_time_end": "9999.12.31 00:00",
      "subCategoryList": [],
      "oldcode": "V0208RxfQy",
      "seq": 216,
      "regadmin": 0,
      "rnum": 19,
      "carbohydrate_ratio": "8",
      "kor_content": "고소하고 부드러운 치즈와 <br>100% 순 쇠고기 패티가 두개<br>\r\n맥도날드만의 더블 치즈버거!!<br><br>\r\n*판매 시간: 10:30AM~4AM",
      "pc_list_eng_alt": "Double Cheeseburger",
      "pc_list_kor_alt": "더블 치즈버거",
      "eng_origin": "",
      "status_txt": "",
      "kor_name": "더블 치즈버거",
      "pc_eng_alt": "Double Cheeseburger product photo",
      "protein_ratio": "49",
      "regdate": "2019-05-30",
      "sub_category_seq": 0
    },
    {
      "eng_content": "Deep flavor with melted cheese\r\nEnjoy more with Tripple!",
      "kor_origin": "",
      "allegyList": [],
      "name_txt": "",
      "materialList": [],
      "prev": null,
      "carbohydrate": "9",
      "moddate": "2024-04-23",
      "pc_kor_alt": "트리플 치즈버거 제품 사진",
      "mo_image_url": "/upload/product/mofile/1695717135563.png",
      "protein": "36",
      "fat": "17",
      "pc_list_thum_url": "/upload/product/pcthum/1591773628140.png",
      "fat_ratio": "115",
      "pc_list_image_url": "/upload/product/pcList/1695717081551.png",
      "pc_image_url": "/upload/product/pcfile/1695717107656.png",
      "weight": "219",
      "volume": "",
      "sodium": "1230",
      "volume_ratio": "",
      "calorie": "620",
      "eng_name": "Triple Cheeseburger",
      "seq_txt": "",
      "sodium_ratio": "61",
      "status": "Y",
      "next": null,
      "open_time_start": "2020.06.10 00:00",
      "caffeine_ratio": "",
      "mo_kor_alt": "트리플 치즈버거 제품 사진",
      "mo_list_eng_alt": "Triple Cheeseburger",
      "sizeList": [],
      "mo_eng_alt": "Triple Cheeseburger product photo",
      "mo_list_kor_alt": "트리플 치즈버거",
      "mo_list_image_url": "/upload/product/molist/1695717123267.png",
      "calorie_ratio": "",
      "weight_ratio": "",
      "caffeine": "",
      "modadmin": 0,
      "od": 241,
      "open_time_end": "2099.08.31 00:00",
      "subCategoryList": [],
      "oldcode": "",
      "seq": 330,
      "regadmin": 4,
      "rnum": 20,
      "carbohydrate_ratio": "9",
      "kor_content": "부드러운 치즈와 풍부한 육즙의 패티를<br>세배 더 진하게 즐길 수 있는 트리플 치즈버거",
      "pc_list_eng_alt": "Triple Cheeseburger",
      "pc_list_kor_alt": "트리플 치즈버거",
      "eng_origin": "",
      "status_txt": "",
      "kor_name": "트리플 치즈버거",
      "pc_eng_alt": "Triple Cheeseburger product photo",
      "protein_ratio": "65",
      "regdate": "2020-06-10",
      "sub_category_seq": 0
    },
    {
      "eng_content": "Back to the basics. <br>\r\nBurger with 100% beef patty, <br>\r\ntangy pickles and minced onions.<br>\r\n<br>\r\n*Available from 10:30AM to 4AM",
      "kor_origin": "",
      "allegyList": [],
      "name_txt": "",
      "materialList": [],
      "prev": null,
      "carbohydrate": "7",
      "moddate": "2024-08-26",
      "pc_kor_alt": "햄버거 제품 사진",
      "mo_image_url": "/upload/product/mofile/1583728294710.png",
      "protein": "13",
      "fat": "3",
      "pc_list_thum_url": "/upload/product/pcthum/1583728276558.png",
      "fat_ratio": "23",
      "pc_list_image_url": "/upload/product/pcList/1583728270768.png",
      "pc_image_url": "/upload/product/pcfile/1583728282358.png",
      "weight": "101",
      "volume": "",
      "sodium": "450",
      "volume_ratio": "",
      "calorie": "266",
      "eng_name": "Hamburger",
      "seq_txt": "",
      "sodium_ratio": "22",
      "status": "Y",
      "next": null,
      "open_time_start": "2013.11.27 00:00",
      "caffeine_ratio": "",
      "mo_kor_alt": "햄버거 제품 사진",
      "mo_list_eng_alt": "Hamburger",
      "sizeList": [],
      "mo_eng_alt": "Hamburger product photo",
      "mo_list_kor_alt": "햄버거",
      "mo_list_image_url": "/upload/product/molist/1583728288439.png",
      "calorie_ratio": "",
      "weight_ratio": "",
      "caffeine": "",
      "modadmin": 0,
      "od": 250,
      "open_time_end": "9999.12.31 00:00",
      "subCategoryList": [],
      "oldcode": "bg40",
      "seq": 26,
      "regadmin": 0,
      "rnum": 21,
      "carbohydrate_ratio": "7",
      "kor_content": "100% 순 쇠고기 패티에 상큼한 피클과 양파,<br>\r\n기본에 충실한 맥도날드 햄버거.<br>\r\n<br>\r\n*판매 시간 : 오전 10시 30분 ~ 새벽 4시",
      "pc_list_eng_alt": "Hamburger",
      "pc_list_kor_alt": "햄버거",
      "eng_origin": "",
      "status_txt": "",
      "kor_name": "햄버거",
      "pc_eng_alt": "Hamburger product photo",
      "protein_ratio": "24",
      "regdate": "2019-05-30",
      "sub_category_seq": 0
    }
  ]
}
