{
  "totalPage": 4,
  "page": 1,
  "is_ok": "ok",
  "totalCount": 20,
  "list": [
    {
      "eng_content": "An even greater harmony of taste with the combination<br> of a whole chicken thigh patty and spicy Sriracha Mayo sauce.<br><br>\r\n\r\n*Available from 10:30AM~4AM",
      "kor_origin": "",
      "allegyList": [],
      "name_txt": "",
      "materialList": [],
      "prev": null,
      "carbohydrate": "",
      "moddate": "2024-10-29",
      "pc_kor_alt": "신제품",
      "mo_image_url": "/upload/product/mofile/1726156796699.png",
      "protein": "",
      "fat": "",
      "pc_list_thum_url": "/upload/product/pcthum/1726156773134.png",
      "fat_ratio": "",
      "pc_list_image_url": "/upload/product/pcList/1726156770180.png",
      "pc_image_url": "/upload/product/pcfile/1726156780058.png",
      "weight": "",
      "volume": "",
      "sodium": "",
      "volume_ratio": "",
      "calorie": "987~1126",
      "eng_name": "McCrispy<sub class=reg>™</sub> Sriracha Mayo Meal",
      "seq_txt": "",
      "sodium_ratio": "",
      "status": "Y",
      "next": null,
      "open_time_start": "2024.09.13 00:00",
      "caffeine_ratio": "",
      "mo_kor_alt": "신제품",
      "mo_list_eng_alt": "NEW",
      "sizeList": [],
      "mo_eng_alt": "NEW",
      "mo_list_kor_alt": "신제품",
      "mo_list_image_url": "/upload/product/molist/1726156792336.png",
      "calorie_ratio": "",
      "weight_ratio": "",
      "caffeine": "",
      "modadmin": 0,
      "od": 0,
      "open_time_end": "2024.11.06 23:59",
      "subCategoryList": [],
      "oldcode": "",
      "seq": 623,
      "regadmin": 17,
      "rnum": 1,
      "carbohydrate_ratio": "",
      "kor_content": "빠삭한 100% 통닭다리살 케이준 패티에 <br>\r\n스리라차 마요 소스를 더해 매콤 고소한 맛!\r\n<br><br>\r\n*판매 시간: 오전 10시 30분 ~ 새벽 4시",
      "pc_list_eng_alt": "NEW",
      "pc_list_kor_alt": "신제품",
      "eng_origin": "",
      "status_txt": "",
      "kor_name": "맥크리스피<sub class=reg>™</sub> 스리라차 마요 세트",
      "pc_eng_alt": "NEW",
      "protein_ratio": "",
      "regdate": "2024-09-13",
      "sub_category_seq": 0
    },
    {
      "eng_content": "An even deeper and flavorful taste of a special Bacon <br>Tomato Deluxe with spicy Sriracha Mayo sauce.\r\n<br><br>\r\n*Available from 10:30AM~4AM",
      "kor_origin": "",
      "allegyList": [],
      "name_txt": "",
      "materialList": [],
      "prev": null,
      "carbohydrate": "",
      "moddate": "2024-10-29",
      "pc_kor_alt": "신제품",
      "mo_image_url": "/upload/product/mofile/1726157319415.png",
      "protein": "",
      "fat": "",
      "pc_list_thum_url": "/upload/product/pcthum/1726157330525.png",
      "fat_ratio": "",
      "pc_list_image_url": "/upload/product/pcList/1726157327722.png",
      "pc_image_url": "/upload/product/pcfile/1726157339984.png",
      "weight": "",
      "volume": "",
      "sodium": "",
      "volume_ratio": "",
      "calorie": "945~1085",
      "eng_name": "Bacon Tomato Deluxe Sriracha Mayo Meal",
      "seq_txt": "",
      "sodium_ratio": "",
      "status": "Y",
      "next": null,
      "open_time_start": "2024.09.13 00:00",
      "caffeine_ratio": "",
      "mo_kor_alt": "신제품",
      "mo_list_eng_alt": "NEW",
      "sizeList": [],
      "mo_eng_alt": "NEW",
      "mo_list_kor_alt": "신제품",
      "mo_list_image_url": "/upload/product/molist/1726157315292.png",
      "calorie_ratio": "",
      "weight_ratio": "",
      "caffeine": "",
      "modadmin": 0,
      "od": 1,
      "open_time_end": "2024.11.06 23:59",
      "subCategoryList": [],
      "oldcode": "",
      "seq": 626,
      "regadmin": 17,
      "rnum": 2,
      "carbohydrate_ratio": "",
      "kor_content": "베이컨 토마토 디럭스에 <br>\r\n스리라차 마요 소스를 더해 색다른 매콤함!\r\n<br><br>\r\n*판매 시간: 오전 10시 30분 ~ 새벽 4시",
      "pc_list_eng_alt": "NEW",
      "pc_list_kor_alt": "신제품",
      "eng_origin": "",
      "status_txt": "",
      "kor_name": "베토디 스리라차 마요 세트",
      "pc_eng_alt": "NEW",
      "protein_ratio": "",
      "regdate": "2024-09-13",
      "sub_category_seq": 0
    },
    {
      "eng_content": "100% chicken breast patty coated with rice crumble & spicy seasoning!<br>\r\nCrunchy lettuce and fresh tomatoes!<br>\r\nCrisp and tastier NEW McSpicy Shanghai Burger.\r\n<br><br>\r\n*Available from 10:30AM~4AM",
      "kor_origin": "",
      "allegyList": [],
      "name_txt": "",
      "materialList": [],
      "prev": null,
      "carbohydrate": "",
      "moddate": "2024-08-14",
      "pc_kor_alt": "맥스파이시 상하이 버거 세트 제품 사진_감자튀김과 콜라 M사이즈 포함",
      "mo_image_url": "/upload/product/mofile/1723562692639.png",
      "protein": "",
      "fat": "",
      "pc_list_thum_url": "/upload/product/pcthum/1723562645306.png",
      "fat_ratio": "",
      "pc_list_image_url": "/upload/product/pcList/1723562636476.png",
      "pc_image_url": "/upload/product/pcfile/1723562660091.png",
      "weight": "",
      "volume": "",
      "sodium": "",
      "volume_ratio": "",
      "calorie": "825~964",
      "eng_name": "McSpicy<sub class=reg>®</sub> Shanghai Burger Meal",
      "seq_txt": "",
      "sodium_ratio": "",
      "status": "Y",
      "next": null,
      "open_time_start": "2024.06.05 00:00",
      "caffeine_ratio": "",
      "mo_kor_alt": "맥스파이시 상하이 버거 세트 제품 사진_감자튀김과 콜라 M사이즈 포함",
      "mo_list_eng_alt": "McSpicy Shanghai Burger Meal",
      "sizeList": [],
      "mo_eng_alt": "McSpicy Shanghai Burger Meal",
      "mo_list_kor_alt": "맥스파이시 상하이 버거 세트",
      "mo_list_image_url": "/upload/product/molist/1723562678124.png",
      "calorie_ratio": "",
      "weight_ratio": "",
      "caffeine": "",
      "modadmin": 0,
      "od": 2,
      "open_time_end": "2099.06.30 00:00",
      "subCategoryList": [],
      "oldcode": "",
      "seq": 603,
      "regadmin": 17,
      "rnum": 3,
      "carbohydrate_ratio": "",
      "kor_content": "쌀가루가 더해져 더 바삭해진 100% 닭가슴살 패티에<br>\r\n아삭아삭한 양상추와 신선한 토마토까지!<br>\r\n더 바삭하고 맛있어진 NEW 맥스파이시 상하이 버거로<br>\r\n입맛도 기분도 화끈하게!\r\n<br><br>\r\n*판매 시간: 10:30AM~4AM",
      "pc_list_eng_alt": "McSpicy Shanghai Burger Meal",
      "pc_list_kor_alt": "맥스파이시 상하이 버거 세트",
      "eng_origin": "",
      "status_txt": "",
      "kor_name": "맥스파이시<sub class=reg>®</sub> 상하이 버거 세트",
      "pc_eng_alt": "McSpicy Shanghai Burger Meal",
      "protein_ratio": "",
      "regdate": "2024-06-04",
      "sub_category_seq": 0
    },
    {
      "eng_content": "An even greater harmony of fresh tomato and savory cheeseburger\r\n<br><br>\r\n*Available from 10:30AM~4AM",
      "kor_origin": "",
      "allegyList": [],
      "name_txt": "",
      "materialList": [],
      "prev": null,
      "carbohydrate": "",
      "moddate": "2024-08-14",
      "pc_kor_alt": "신제품 토마토 치즈 비프 버거 세트 제품 사진_감자튀김 M사이즈와 콜라 M사이즈 포함",
      "mo_image_url": "/upload/product/mofile/1723562606606.png",
      "protein": "",
      "fat": "",
      "pc_list_thum_url": "/upload/product/pcthum/1723562572660.png",
      "fat_ratio": "",
      "pc_list_image_url": "/upload/product/pcList/1723562559920.png",
      "pc_image_url": "/upload/product/pcfile/1723562585854.png",
      "weight": "",
      "volume": "",
      "sodium": "",
      "volume_ratio": "",
      "calorie": "727~866",
      "eng_name": "Tomato Cheese Beef Burger Meal",
      "seq_txt": "",
      "sodium_ratio": "",
      "status": "Y",
      "next": null,
      "open_time_start": "2024.06.13 00:00",
      "caffeine_ratio": "",
      "mo_kor_alt": "신제품 토마토 치즈 비프 버거 세트 제품 사진_감자튀김 M사이즈와 콜라 M사이즈 포함",
      "mo_list_eng_alt": "NEW",
      "sizeList": [],
      "mo_eng_alt": "NEW Tomato Cheese Beef Burger Meal",
      "mo_list_kor_alt": "신제품",
      "mo_list_image_url": "/upload/product/molist/1723562597084.png",
      "calorie_ratio": "",
      "weight_ratio": "",
      "caffeine": "",
      "modadmin": 0,
      "od": 3,
      "open_time_end": "2055.06.30 00:00",
      "subCategoryList": [],
      "oldcode": "",
      "seq": 606,
      "regadmin": 17,
      "rnum": 4,
      "carbohydrate_ratio": "",
      "kor_content": "신선한 토마토와 고소한 치즈버거의 조화\r\n<br><br>\r\n*판매 시간: 10:30AM~4AM",
      "pc_list_eng_alt": "NEW",
      "pc_list_kor_alt": "신제품",
      "eng_origin": "",
      "status_txt": "",
      "kor_name": "토마토 치즈 비프 버거 세트",
      "pc_eng_alt": "NEW Tomato Cheese Beef Burger Meal",
      "protein_ratio": "",
      "regdate": "2024-06-12",
      "sub_category_seq": 0
    },
    {
      "eng_content": "Double up the enjoyment with double quarter pound beef patties.<br>\r\nSpecially selected juicy, prime 100% pure beef patties<br> \r\nsimply seasoned with original taste and two slices of melty cheese.<br>\r\n<br>\r\n*Available from 10:30AM to 4AM",
      "kor_origin": "",
      "allegyList": [],
      "name_txt": "",
      "materialList": [],
      "prev": null,
      "carbohydrate": "",
      "moddate": "2024-08-14",
      "pc_kor_alt": "더블 쿼터파운더 치즈 세트 감자튀김과 콜라M사이즈 포함 제품 사진",
      "mo_image_url": "/upload/product/mofile/1723563777423.png",
      "protein": "",
      "fat": "",
      "pc_list_thum_url": "/upload/product/pcthum/1723563750406.png",
      "fat_ratio": "",
      "pc_list_image_url": "/upload/product/pcList/1723563741752.png",
      "pc_image_url": "/upload/product/pcfile/1723563759418.png",
      "weight": "",
      "volume": "",
      "sodium": "",
      "volume_ratio": "",
      "calorie": "1094~1233",
      "eng_name": "Double Quarter Pounder<sub class=reg>®</sub><br>with Cheese Meal",
      "seq_txt": "",
      "sodium_ratio": "",
      "status": "Y",
      "next": null,
      "open_time_start": "2013.11.27 00:00",
      "caffeine_ratio": "",
      "mo_kor_alt": "더블 쿼터파운더 치즈 세트 감자튀김과 콜라M사이즈 포함 제품 사진",
      "mo_list_eng_alt": "Double Quarter Pounder with Cheese Meal",
      "sizeList": [],
      "mo_eng_alt": "Double Quarter Pounder with Cheese Meal Includes French Fries and Coke Size M  product photo",
      "mo_list_kor_alt": "더블 쿼터파운더 치즈 세트",
      "mo_list_image_url": "/upload/product/molist/1723563767854.png",
      "calorie_ratio": "",
      "weight_ratio": "",
      "caffeine": "",
      "modadmin": 0,
      "od": 190,
      "open_time_end": "9999.12.31 00:00",
      "subCategoryList": [],
      "oldcode": "sm70",
      "seq": 189,
      "regadmin": 0,
      "rnum": 5,
      "carbohydrate_ratio": "",
      "kor_content": "좋아하는건 더 많이 즐기시라고, <br>두 배 이상 커진 1/4 파운드<br>\r\n비프 패티가 두 장 (226그램)! <br>육즙이 풍부한 고기 맛을<br>\r\n그대로 살린 100% 순 쇠고기 패티 두 장과 <br>치즈 두 장이 입안 가득 완벽하게 조화되는 놀라운 맛<br>\r\n<br>\r\n*판매 시간: 10:30AM~4AM",
      "pc_list_eng_alt": "Double Quarter Pounder with Cheese Meal",
      "pc_list_kor_alt": "더블 쿼터파운더 치즈 세트",
      "eng_origin": "",
      "status_txt": "",
      "kor_name": "더블 쿼터파운더<sub>®</sub> 치즈 세트",
      "pc_eng_alt": "Double Quarter Pounder with Cheese Meal Includes French Fries and Coke Size M  product photo",
      "protein_ratio": "",
      "regdate": "2019-05-30",
      "sub_category_seq": 0
    },
    {
      "eng_content": "A quarter pound of juicy, 100% beef simply seasoned <br>\r\nwith a pinch of salt and pepper, two slices of melty cheese, <br>\r\nslivered onions and tangy pickles all on a sesame seed bun.<br>\r\n<br>\r\n*Available from 10:30AM to 4AM",
      "kor_origin": "",
      "allegyList": [],
      "name_txt": "",
      "materialList": [],
      "prev": null,
      "carbohydrate": "",
      "moddate": "2024-08-14",
      "pc_kor_alt": "쿼터파운더 치즈 세트 감자튀김과 콜라M사이즈 포함 제품 사진",
      "mo_image_url": "/upload/product/mofile/1723563847191.png",
      "protein": "",
      "fat": "",
      "pc_list_thum_url": "/upload/product/pcthum/1723563805160.png",
      "fat_ratio": "",
      "pc_list_image_url": "/upload/product/pcList/1723563798896.png",
      "pc_image_url": "/upload/product/pcfile/1723563812629.png",
      "weight": "",
      "volume": "",
      "sodium": "",
      "volume_ratio": "",
      "calorie": "859~999",
      "eng_name": "Quarter Pounder<sub class=reg>®</sub><br>with Cheese Meal",
      "seq_txt": "",
      "sodium_ratio": "",
      "status": "Y",
      "next": null,
      "open_time_start": "2013.11.27 00:00",
      "caffeine_ratio": "",
      "mo_kor_alt": "쿼터파운더 치즈 세트 감자튀김과 콜라M사이즈 포함 제품 사진",
      "mo_list_eng_alt": "Quarter Pounder with Cheese Meal",
      "sizeList": [],
      "mo_eng_alt": "Quarter Pounder with Cheese Meal Includes French Fries and Coke Size M product photo",
      "mo_list_kor_alt": "쿼터파운더 치즈 세트",
      "mo_list_image_url": "/upload/product/molist/1723563824655.png",
      "calorie_ratio": "",
      "weight_ratio": "",
      "caffeine": "",
      "modadmin": 0,
      "od": 180,
      "open_time_end": "9999.12.31 00:00",
      "subCategoryList": [],
      "oldcode": "sm60",
      "seq": 188,
      "regadmin": 0,
      "rnum": 6,
      "carbohydrate_ratio": "",
      "kor_content": "쿼터파운더라는 이름에서 알 수 있듯이 <br>두 배 이상 커진\r\n1/4파운드(113그램) 비프와 <br>부드러운 치즈 두 장의 환상궁합!<br>\r\n두툼한 순 쇠고기 패티와 신선한 치즈의 <br>풍부한 맛으로 세계적으로 사랑받고 있는<br> 맥도날드의 대표적인 프리미엄 버거<br>\r\n<br>\r\n*판매 시간: 10:30AM~4AM",
      "pc_list_eng_alt": "Quarter Pounder with Cheese Meal",
      "pc_list_kor_alt": "쿼터파운더 치즈 세트",
      "eng_origin": "",
      "status_txt": "",
      "kor_name": "쿼터파운더<sub class=reg>®</sub> 치즈 세트",
      "pc_eng_alt": "Quarter Pounder with Cheese Meal Includes French Fries and Coke Size M product photo",
      "protein_ratio": "",
      "regdate": "2019-05-30",
      "sub_category_seq": 0
    }
  ]
}
