{
  "totalPage": 4,
  "page": 2,
  "is_ok": "ok",
  "totalCount": 20,
  "list": [
    {
      "eng_content": "World's most popular burger that got everyone hooked, <br>with two 100% pure beef patties and special sauce<br><br>\r\n* Available from 10:30AM to 4AM<br>",
      "kor_origin": "",
      "allegyList": [],
      "name_txt": "",
      "materialList": [],
      "prev": null,
      "carbohydrate": "",
      "moddate": "2024-08-14",
      "pc_kor_alt": "빅맥 세트 감자튀김과 콜라M사이즈 포함 제품 사진",
      "mo_image_url": "/upload/product/mofile/1723564127577.png",
      "protein": "",
      "fat": "",
      "pc_list_thum_url": "/upload/product/pcthum/1723564095747.png",
      "fat_ratio": "",
      "pc_list_image_url": "/upload/product/pcList/1723564088934.png",
      "pc_image_url": "/upload/product/pcfile/1723564106957.png",
      "weight": "",
      "volume": "",
      "sodium": "",
      "volume_ratio": "",
      "calorie": "906~1045",
      "eng_name": "Big Mac<sub class=reg>®</sub> Meal",
      "seq_txt": "",
      "sodium_ratio": "",
      "status": "Y",
      "next": null,
      "open_time_start": "2013.11.27 00:00",
      "caffeine_ratio": "",
      "mo_kor_alt": "빅맥 세트 감자튀김과 콜라M사이즈 포함 제품 사진",
      "mo_list_eng_alt": "Big Mac Meal",
      "sizeList": [],
      "mo_eng_alt": "Big Mac Meal Includes French Fries and Coke Size M product photo",
      "mo_list_kor_alt": "빅맥 세트",
      "mo_list_image_url": "/upload/product/molist/1723564113706.png",
      "calorie_ratio": "",
      "weight_ratio": "",
      "caffeine": "",
      "modadmin": 0,
      "od": 190,
      "open_time_end": "9999.12.31 00:00",
      "subCategoryList": [],
      "oldcode": "sm01",
      "seq": 178,
      "regadmin": 0,
      "rnum": 7,
      "carbohydrate_ratio": "",
      "kor_content": "100% 순 쇠고기 패티 두 장에 <br>빅맥<sub class=reg>®</sub>만의  특별한 소스.<br>입안에서 살살 녹는 치즈와 신선한 양상추, 양파, <br>그리고 피클까지.<br>50년 넘게 전 세계인의 입맛을 사로 잡은<br> 버거의 대명사.<br>\r\n<br>\r\n*판매 시간: 10:30AM~4AM",
      "pc_list_eng_alt": "Big Mac Meal",
      "pc_list_kor_alt": "빅맥 세트",
      "eng_origin": "",
      "status_txt": "",
      "kor_name": "빅맥<sub class=reg>®</sub> 세트",
      "pc_eng_alt": "Big Mac Meal Includes French Fries and Coke Size M product photo",
      "protein_ratio": "",
      "regdate": "2019-05-30",
      "sub_category_seq": 0
    },
    {
      "eng_content": "Thick, whole-chicken thigh and drumstick meat, <br>\r\nflavored with zesty Cajun seasoning, is deep-fried for the patty <br>\r\nthat is crispy on the outside, but juicy inside. <br>\r\nChicken burger’s best-match, chewy brioche potato buns, <br>\r\nfresh tomato and lettuce, topped with smooth, <br>\r\nsmoky-flavor special sauce, complete our full and zesty-flavored chicken burger.<br><br>\r\n*selling time : 10:30AM~4AM",
      "kor_origin": "",
      "allegyList": [],
      "name_txt": "",
      "materialList": [],
      "prev": null,
      "carbohydrate": "",
      "moddate": "2024-08-14",
      "pc_kor_alt": "신제품 맥크리스피 디럭스 버거 세트_감자튀김과 콜라 M사이즈 포함 제품 사진",
      "mo_image_url": "/upload/product/mofile/1723562767570.png",
      "protein": "",
      "fat": "",
      "pc_list_thum_url": "/upload/product/pcthum/1723562737396.png",
      "fat_ratio": "",
      "pc_list_image_url": "/upload/product/pcList/1723562727181.png",
      "pc_image_url": "/upload/product/pcfile/1723562746514.png",
      "weight": "",
      "volume": "",
      "sodium": "",
      "volume_ratio": "",
      "calorie": "938~1077",
      "eng_name": "McCrispy<sub class=reg>™</sub> Deluxe Burger Meal",
      "seq_txt": "",
      "sodium_ratio": "",
      "status": "Y",
      "next": null,
      "open_time_start": "2022.05.26 00:00",
      "caffeine_ratio": "",
      "mo_kor_alt": "신제품 맥크리스피 디럭스 버거 세트_감자튀김과 콜라 M사이즈 포함 제품 사진",
      "mo_list_eng_alt": "New",
      "sizeList": [],
      "mo_eng_alt": "New McCrispy Deluxe Burger Meal Includes French Fries and Coke Size M product photo",
      "mo_list_kor_alt": "신제품",
      "mo_list_image_url": "/upload/product/molist/1723562756800.png",
      "calorie_ratio": "",
      "weight_ratio": "",
      "caffeine": "",
      "modadmin": 0,
      "od": 3,
      "open_time_end": "2099.12.31 00:00",
      "subCategoryList": [],
      "oldcode": "",
      "seq": 471,
      "regadmin": 17,
      "rnum": 8,
      "carbohydrate_ratio": "",
      "kor_content": "100% 통닭다리살 겉바속촉 케이준 치킨 패티, <br>\r\n촉촉한 포테이토 브리오쉬 번, 스페셜 스모키 소스가 <br>선사하는 놀랍도록 새로운 맛의 치킨 버거!<br><br>\r\n*판매 시간: 10:30AM~4AM",
      "pc_list_eng_alt": "New",
      "pc_list_kor_alt": "신제품",
      "eng_origin": "",
      "status_txt": "",
      "kor_name": "맥크리스피<sub class=reg>™</sub> 디럭스 버거 세트",
      "pc_eng_alt": "New McCrispy Deluxe Burger Meal Includes French Fries and Coke Size M product photo",
      "protein_ratio": "",
      "regdate": "2022-05-25",
      "sub_category_seq": 0
    },
    {
      "eng_content": "Thick, whole-chicken thigh and drumstick meat, <br>\r\nflavored with zesty Cajun seasoning, is deep-fried for the patty<br>\r\n that is crispy on the outside, but juicy inside. <br>\r\nChicken burger’s best-match, chewy brioche potato buns, <br>\r\ntopped with smooth, smoky-flavor special sauce, <br>\r\ncomplete our full and zesty-flavored chicken burger.\r\n<br><br>*selling time : 10:30AM~4AM",
      "kor_origin": "",
      "allegyList": [],
      "name_txt": "",
      "materialList": [],
      "prev": null,
      "carbohydrate": "",
      "moddate": "2024-08-14",
      "pc_kor_alt": "신제품 맥크리스피 클래식 버거 세트_감자튀김과 콜라 M사이즈 포함 제품 사진",
      "mo_image_url": "/upload/product/mofile/1723562853601.png",
      "protein": "",
      "fat": "",
      "pc_list_thum_url": "/upload/product/pcthum/1723562818284.png",
      "fat_ratio": "",
      "pc_list_image_url": "/upload/product/pcList/1723562810242.png",
      "pc_image_url": "/upload/product/pcfile/1723562830850.png",
      "weight": "",
      "volume": "",
      "sodium": "",
      "volume_ratio": "",
      "calorie": "926~1066",
      "eng_name": "McCrispy<sub class=reg>™</sub> Classic Burger Meal",
      "seq_txt": "",
      "sodium_ratio": "",
      "status": "Y",
      "next": null,
      "open_time_start": "2022.05.26 00:00",
      "caffeine_ratio": "",
      "mo_kor_alt": "신제품 맥크리스피 클래식 버거 세트_감자튀김과 콜라 M사이즈 포함 제품 사진",
      "mo_list_eng_alt": "New",
      "sizeList": [],
      "mo_eng_alt": "New McCrispy Classic Burger Meal  Includes French Fries and Coke Size M product photo",
      "mo_list_kor_alt": "신제품",
      "mo_list_image_url": "/upload/product/molist/1723562844396.png",
      "calorie_ratio": "",
      "weight_ratio": "",
      "caffeine": "",
      "modadmin": 0,
      "od": 0,
      "open_time_end": "2099.12.31 00:00",
      "subCategoryList": [],
      "oldcode": "",
      "seq": 470,
      "regadmin": 17,
      "rnum": 9,
      "carbohydrate_ratio": "",
      "kor_content": "100% 통닭다리살 겉바속촉 케이준 치킨 패티!<br>\r\n치킨 버거 본연의 맛에 충실한 클래식 버거\r\n<br><br>\r\n*판매 시간: 10:30AM~4AM",
      "pc_list_eng_alt": "New",
      "pc_list_kor_alt": "신제품",
      "eng_origin": "",
      "status_txt": "",
      "kor_name": "맥크리스피<sub class=reg>™</sub> 클래식 버거 세트",
      "pc_eng_alt": "New McCrispy Classic Burger Meal  Includes French Fries and Coke Size M product photo",
      "protein_ratio": "",
      "regdate": "2022-05-25",
      "sub_category_seq": 0
    },
    {
      "eng_content": "113g of thick beef patty, deep flavor of grilled onion with special 1955 sauce! </br> \r\nThe taste of 1955 since McDonald’s began </br> \r\nEternal original 1955 burger<br>\r\n<br>\r\n*Available from 10:30AM to 4AM",
      "kor_origin": "",
      "allegyList": [],
      "name_txt": "",
      "materialList": [],
      "prev": null,
      "carbohydrate": "",
      "moddate": "2024-08-14",
      "pc_kor_alt": "1955 버거 세트 감자튀김과 콜라 M 포함 제품 사진",
      "mo_image_url": "/upload/product/mofile/1723564281331.png",
      "protein": "",
      "fat": "",
      "pc_list_thum_url": "/upload/product/pcthum/1723564254101.png",
      "fat_ratio": "",
      "pc_list_image_url": "/upload/product/pcList/1723564242231.png",
      "pc_image_url": "/upload/product/pcfile/1723564262197.png",
      "weight": "",
      "volume": "",
      "sodium": "",
      "volume_ratio": "",
      "calorie": "896~1035",
      "eng_name": "1955<sub>®</sub><br> Burger Meal",
      "seq_txt": "",
      "sodium_ratio": "",
      "status": "Y",
      "next": null,
      "open_time_start": "2013.11.27 00:00",
      "caffeine_ratio": "",
      "mo_kor_alt": "1955 버거 세트 감자튀김과 콜라 M 포함 제품 사진",
      "mo_list_eng_alt": "1955 Burger Meal",
      "sizeList": [],
      "mo_eng_alt": "1955 Burger Meal Includes French Fries and Coke Size M product photo",
      "mo_list_kor_alt": "1955 버거 세트",
      "mo_list_image_url": "/upload/product/molist/1723564272954.png",
      "calorie_ratio": "",
      "weight_ratio": "",
      "caffeine": "",
      "modadmin": 0,
      "od": 10,
      "open_time_end": "9999.12.31 00:00",
      "subCategoryList": [],
      "oldcode": "1955b2",
      "seq": 2,
      "regadmin": 0,
      "rnum": 10,
      "carbohydrate_ratio": "",
      "kor_content": "113g 두툼한 순 쇠고기 패티,<br>\r\n특별한 1955 소스에 깊은 풍미의 그릴드 어니언까지!<br>\r\n맥도날드가 처음 생긴 1955년의 맛을 담은<br>\r\n영원한 오리지널 1955 버거<br>\r\n\r\n<br>\r\n*판매 시간: 10:30AM~4AM",
      "pc_list_eng_alt": "1955 Burger Meal",
      "pc_list_kor_alt": "1955 버거 세트",
      "eng_origin": "",
      "status_txt": "",
      "kor_name": "1955<sub>®</sub> 버거 세트",
      "pc_eng_alt": "1955 Burger Meal Includes French Fries and Coke Size M product photo",
      "protein_ratio": "",
      "regdate": "2019-05-30",
      "sub_category_seq": 0
    },
    {
      "eng_content": "Here comes our new and impressively tasty McChicken Mozzarella that features big McChicken,<br>two Golden Mozzarella cheese sticks, and spicy Arabian-inspired sauce.<br>\r\n<br>\r\n*Available from 10:30AM to 4AM",
      "kor_origin": "",
      "allegyList": [],
      "name_txt": "",
      "materialList": [],
      "prev": null,
      "carbohydrate": "",
      "moddate": "2024-08-14",
      "pc_kor_alt": "맥치킨® 모짜렐라 세트 감자튀김과 콜라M사이즈 포함 제품 사진",
      "mo_image_url": "/upload/product/mofile/1723563359634.png",
      "protein": "",
      "fat": "",
      "pc_list_thum_url": "/upload/product/pcthum/1723563291764.png",
      "fat_ratio": "",
      "pc_list_image_url": "/upload/product/pcList/1723563246534.png",
      "pc_image_url": "/upload/product/pcfile/1723563301214.png",
      "weight": "",
      "volume": "",
      "sodium": "",
      "volume_ratio": "",
      "calorie": "1066~1206",
      "eng_name": "McChicken<sub class=reg>®</sub> Mozzarella</br>Meal",
      "seq_txt": "",
      "sodium_ratio": "",
      "status": "Y",
      "next": null,
      "open_time_start": "2019.10.10 00:00",
      "caffeine_ratio": "",
      "mo_kor_alt": "맥치킨® 모짜렐라 세트 감자튀김과 콜라M사이즈 포함 제품 사진",
      "mo_list_eng_alt": "McChicken® Mozzarella Meal",
      "sizeList": [],
      "mo_eng_alt": "McChicken® Mozzarella Meal Includes French Fries and Coke Size M product photo",
      "mo_list_kor_alt": "맥치킨® 모짜렐라 세트",
      "mo_list_image_url": "/upload/product/molist/1723563329436.png",
      "calorie_ratio": "",
      "weight_ratio": "",
      "caffeine": "",
      "modadmin": 0,
      "od": 0,
      "open_time_end": "9999.01.01 00:00",
      "subCategoryList": [],
      "oldcode": "",
      "seq": 293,
      "regadmin": 4,
      "rnum": 11,
      "carbohydrate_ratio": "",
      "kor_content": "든든한 맥치킨에 골든 모짜렐라 치즈 스틱 2개와</br>매콤한 아라비아따 소스를 더해</br>강렬하게 재탄생한 맥치킨 모짜렐라!</br>\r\n</br>\r\n*판매 시간: 10:30AM~4AM",
      "pc_list_eng_alt": "McChicken® Mozzarella Meal",
      "pc_list_kor_alt": "맥치킨® 모짜렐라 세트",
      "eng_origin": "",
      "status_txt": "",
      "kor_name": "맥치킨<sub class=reg>®</sub> 모짜렐라 세트",
      "pc_eng_alt": "McChicken® Mozzarella Meal Includes French Fries and Coke Size M product photo",
      "protein_ratio": "",
      "regdate": "2019-10-08",
      "sub_category_seq": 0
    },
    {
      "eng_content": "Taste the crispy chicken patty, savory white mayo sauce and crunch lettuce.<br>McChicken is back with upgraded tastes!<br>\r\n<br>\r\n*Available from 10:30AM to 4AM",
      "kor_origin": "",
      "allegyList": [],
      "name_txt": "",
      "materialList": [],
      "prev": null,
      "carbohydrate": "",
      "moddate": "2024-08-14",
      "pc_kor_alt": "맥치킨 세트 감자튀김과 콜라M사이즈 포함 제품 사진",
      "mo_image_url": "/upload/product/mofile/1723563463428.png",
      "protein": "",
      "fat": "",
      "pc_list_thum_url": "/upload/product/pcthum/1723563402506.png",
      "fat_ratio": "",
      "pc_list_image_url": "/upload/product/pcList/1723563386219.png",
      "pc_image_url": "/upload/product/pcfile/1723563415066.png",
      "weight": "",
      "volume": "",
      "sodium": "",
      "volume_ratio": "",
      "calorie": "847~986",
      "eng_name": "McChicken<sub class=reg>®</sub></br>Meal",
      "seq_txt": "",
      "sodium_ratio": "",
      "status": "Y",
      "next": null,
      "open_time_start": "2019.10.10 00:00",
      "caffeine_ratio": "",
      "mo_kor_alt": "맥치킨 세트 감자튀김과 콜라M사이즈 포함 제품 사진",
      "mo_list_eng_alt": "McChicken Meal",
      "sizeList": [],
      "mo_eng_alt": "McChicken Meal Includes French Fries and Coke Size M product photo",
      "mo_list_kor_alt": "맥치킨 세트",
      "mo_list_image_url": "/upload/product/molist/1723563423211.png",
      "calorie_ratio": "",
      "weight_ratio": "",
      "caffeine": "",
      "modadmin": 0,
      "od": 0,
      "open_time_end": "9999.01.01 00:00",
      "subCategoryList": [],
      "oldcode": "",
      "seq": 291,
      "regadmin": 4,
      "rnum": 12,
      "carbohydrate_ratio": "",
      "kor_content": "바삭한 치킨 패티, 고소한 화이트 마요 소스와</br>아삭한 양상추가 함께!</br>더 업그레이드된 맛으로 돌아온 맥치킨<br>\r\n<br>\r\n*판매 시간: 10:30AM~4AM",
      "pc_list_eng_alt": "McChicken Meal",
      "pc_list_kor_alt": "맥치킨 세트",
      "eng_origin": "",
      "status_txt": "",
      "kor_name": "맥치킨<sub class=reg>®</sub> 세트",
      "pc_eng_alt": "McChicken Meal Includes French Fries and Coke Size M product photo",
      "protein_ratio": "",
      "regdate": "2019-10-08",
      "sub_category_seq": 0
    }
  ]
}
