{
  "totalPage": 4,
  "page": 3,
  "is_ok": "ok",
  "totalCount": 20,
  "list": [
    {
      "eng_content": "Fire up your taste buds with two patties marinated  <br>\r\nin Korean’s favorite Bulgogi sauce,  <br>\r\nmelty cheese, creamy mayo and crisp lettuce.<br>\r\n<br>\r\n*Available from 10:30AM to 4AM",
      "kor_origin": "",
      "allegyList": [],
      "name_txt": "",
      "materialList": [],
      "prev": null,
      "carbohydrate": "",
      "moddate": "2024-08-14",
      "pc_kor_alt": "더블 불고기 버거 세트 감자튀김과 콜라M사이즈 포함 제품 사진",
      "mo_image_url": "/upload/product/mofile/1723563989305.png",
      "protein": "",
      "fat": "",
      "pc_list_thum_url": "/upload/product/pcthum/1723563964533.png",
      "fat_ratio": "",
      "pc_list_image_url": "/upload/product/pcList/1723563950899.png",
      "pc_image_url": "/upload/product/pcfile/1723563975095.png",
      "weight": "",
      "volume": "",
      "sodium": "",
      "volume_ratio": "",
      "calorie": "959~1098",
      "eng_name": "Double Bulgogi Burger<br>Meal",
      "seq_txt": "",
      "sodium_ratio": "",
      "status": "Y",
      "next": null,
      "open_time_start": "2013.11.27 00:00",
      "caffeine_ratio": "",
      "mo_kor_alt": "더블 불고기 버거 세트 감자튀김과 콜라M사이즈 포함 제품 사진",
      "mo_list_eng_alt": "Double Bulgogi Burger Meal",
      "sizeList": [],
      "mo_eng_alt": "Double Bulgogi Burger Meal Includes French Fries and Coke Size M product photo",
      "mo_list_kor_alt": "더블 불고기 버거 세트",
      "mo_list_image_url": "/upload/product/molist/1723563982591.png",
      "calorie_ratio": "",
      "weight_ratio": "",
      "caffeine": "",
      "modadmin": 0,
      "od": 140,
      "open_time_end": "9999.12.31 00:00",
      "subCategoryList": [],
      "oldcode": "sm40",
      "seq": 186,
      "regadmin": 0,
      "rnum": 13,
      "carbohydrate_ratio": "",
      "kor_content": "진한 불고기 소스의 패티가 두 장!<br>\r\n여기에 고소한 치즈와 마요네즈, <br>\r\n신선한 양상추를 곁들인 깊고 풍부한 맛.<br>\r\n<br>\r\n*판매 시간: 10:30AM~4AM",
      "pc_list_eng_alt": "Double Bulgogi Burger Meal",
      "pc_list_kor_alt": "더블 불고기 버거 세트",
      "eng_origin": "",
      "status_txt": "",
      "kor_name": "더블 불고기 버거 세트",
      "pc_eng_alt": "Double Bulgogi Burger Meal Includes French Fries and Coke Size M product photo",
      "protein_ratio": "",
      "regdate": "2019-05-30",
      "sub_category_seq": 0
    },
    {
      "eng_content": "Fire up your taste buds with a patty marinated <br>\r\nin Korean’s favorite Bulgogi sauce, <br>\r\ncreamy mayo and crisp lettuce.<br><br>\r\n\r\n*Available from 10:30AM to 4AM",
      "kor_origin": "",
      "allegyList": [],
      "name_txt": "",
      "materialList": [],
      "prev": null,
      "carbohydrate": "",
      "moddate": "2024-08-14",
      "pc_kor_alt": "불고기 버거 세트 감자튀김과 콜라M사이즈 포함 제품 사진",
      "mo_image_url": "/upload/product/mofile/1723564062336.png",
      "protein": "",
      "fat": "",
      "pc_list_thum_url": "/upload/product/pcthum/1723564021120.png",
      "fat_ratio": "",
      "pc_list_image_url": "/upload/product/pcList/1723564010190.png",
      "pc_image_url": "/upload/product/pcfile/1723564031536.png",
      "weight": "",
      "volume": "",
      "sodium": "",
      "volume_ratio": "",
      "calorie": "732~872",
      "eng_name": "Bulgogi Burger<br>Meal",
      "seq_txt": "",
      "sodium_ratio": "",
      "status": "Y",
      "next": null,
      "open_time_start": "2013.11.27 00:00",
      "caffeine_ratio": "",
      "mo_kor_alt": "불고기 버거 세트 감자튀김과 콜라M사이즈 포함 제품 사진",
      "mo_list_eng_alt": "Bulgogi Burger Meal",
      "sizeList": [],
      "mo_eng_alt": "Bulgogi Burger Meal Includes French Fries and Coke Size M product photo",
      "mo_list_kor_alt": "불고기 버거 세트",
      "mo_list_image_url": "/upload/product/molist/1723564039637.png",
      "calorie_ratio": "",
      "weight_ratio": "",
      "caffeine": "",
      "modadmin": 0,
      "od": 130,
      "open_time_end": "9999.12.31 00:00",
      "subCategoryList": [],
      "oldcode": "sm120",
      "seq": 181,
      "regadmin": 0,
      "rnum": 14,
      "carbohydrate_ratio": "",
      "kor_content": "한국인의 입맛에 딱 맞는 불고기 소스에 <br>잘 재운 패티와 고소한 마요네즈, <br>신선한 양상추의 맛있는 조합.<br><br>\r\n\r\n*판매 시간: 10:30AM~4AM",
      "pc_list_eng_alt": "Bulgogi Burger Meal",
      "pc_list_kor_alt": "불고기 버거 세트",
      "eng_origin": "",
      "status_txt": "",
      "kor_name": "불고기 버거 세트",
      "pc_eng_alt": "Bulgogi Burger Meal Includes French Fries and Coke Size M product photo",
      "protein_ratio": "",
      "regdate": "2019-05-30",
      "sub_category_seq": 0
    },
    {
      "eng_content": "The standard of shrimp with real shrimps inside<br>\r\n<br>\r\n\r\n*Available from 10:30AM to 4AM",
      "kor_origin": "",
      "allegyList": [],
      "name_txt": "",
      "materialList": [],
      "prev": null,
      "carbohydrate": "",
      "moddate": "2024-08-14",
      "pc_kor_alt": "슈슈 버거 세트 감자튀김과 콜라M사이즈 포함 제품 사진",
      "mo_image_url": "/upload/product/mofile/1723563616798.png",
      "protein": "",
      "fat": "",
      "pc_list_thum_url": "/upload/product/pcthum/1723563580797.png",
      "fat_ratio": "",
      "pc_list_image_url": "/upload/product/pcList/1723563567578.png",
      "pc_image_url": "/upload/product/pcfile/1723563590522.png",
      "weight": "",
      "volume": "",
      "sodium": "",
      "volume_ratio": "",
      "calorie": "732~872",
      "eng_name": "Supreme Shrimp Burger <br>Meal",
      "seq_txt": "",
      "sodium_ratio": "",
      "status": "Y",
      "next": null,
      "open_time_start": "2016.10.07 00:00",
      "caffeine_ratio": "",
      "mo_kor_alt": "슈슈 버거 세트 감자튀김과 콜라M사이즈 포함 제품 사진",
      "mo_list_eng_alt": "Supreme Shrimp Burger Meal",
      "sizeList": [],
      "mo_eng_alt": "Supreme Shrimp Burger Meal Includes French Fries and Coke Size M product photo",
      "mo_list_kor_alt": "슈슈 버거 세트",
      "mo_list_image_url": "/upload/product/molist/1723563607749.png",
      "calorie_ratio": "",
      "weight_ratio": "",
      "caffeine": "",
      "modadmin": 0,
      "od": 50,
      "open_time_end": "9999.10.01 00:00",
      "subCategoryList": [],
      "oldcode": "V10055QrMh",
      "seq": 220,
      "regadmin": 0,
      "rnum": 15,
      "carbohydrate_ratio": "",
      "kor_content": "탱~글한 통새우살 가득~ 슈슈 버거<br>\r\n<br>\r\n* 판매 시간: 10:30AM~4AM",
      "pc_list_eng_alt": "Supreme Shrimp Burger Meal",
      "pc_list_kor_alt": "슈슈 버거 세트",
      "eng_origin": "",
      "status_txt": "",
      "kor_name": "슈슈 버거 세트",
      "pc_eng_alt": "Supreme Shrimp Burger Meal Includes French Fries and Coke Size M product photo",
      "protein_ratio": "",
      "regdate": "2019-05-30",
      "sub_category_seq": 0
    },
    {
      "eng_content": "Real shrimp burger with more fulfilling beef patty<br>\r\n<br>\r\n*Available from 10:30AM to 4AM",
      "kor_origin": "",
      "allegyList": [],
      "name_txt": "",
      "materialList": [],
      "prev": null,
      "carbohydrate": "",
      "moddate": "2024-08-14",
      "pc_kor_alt": "슈비 버거 세트 감자튀김과 콜라 M 포함 제품 사진",
      "mo_image_url": "/upload/product/mofile/1723564212229.png",
      "protein": "",
      "fat": "",
      "pc_list_thum_url": "/upload/product/pcthum/1723564181564.png",
      "fat_ratio": "",
      "pc_list_image_url": "/upload/product/pcList/1723564170138.png",
      "pc_image_url": "/upload/product/pcfile/1723564188909.png",
      "weight": "",
      "volume": "",
      "sodium": "",
      "volume_ratio": "",
      "calorie": "863~1003",
      "eng_name": "Shrimp Beef Burger <br>Meal",
      "seq_txt": "",
      "sodium_ratio": "",
      "status": "Y",
      "next": null,
      "open_time_start": "2016.10.07 00:00",
      "caffeine_ratio": "",
      "mo_kor_alt": "슈비 버거 세트 감자튀김과 콜라 M 포함 제품 사진",
      "mo_list_eng_alt": "Shrimp Beef Burger Meal",
      "sizeList": [],
      "mo_eng_alt": "Shrimp Beef Burger Meal Includes French Fries and Coke Size M product photo",
      "mo_list_kor_alt": "슈비 버거 세트",
      "mo_list_image_url": "/upload/product/molist/1723564200646.png",
      "calorie_ratio": "",
      "weight_ratio": "",
      "caffeine": "",
      "modadmin": 0,
      "od": 60,
      "open_time_end": "9999.11.04 00:00",
      "subCategoryList": [],
      "oldcode": "I0724cWzyi",
      "seq": 81,
      "regadmin": 0,
      "rnum": 16,
      "carbohydrate_ratio": "",
      "kor_content": "탱~글한 통새우살에 비프 패티를 더해 푸짐하게~<br>슈비 버거<br>\r\n<br>\r\n*판매 시간: 10:30AM~4AM",
      "pc_list_eng_alt": "Shrimp Beef Burger Meal",
      "pc_list_kor_alt": "슈비 버거 세트",
      "eng_origin": "",
      "status_txt": "",
      "kor_name": "슈비 버거 세트",
      "pc_eng_alt": "Shrimp Beef Burger Meal Includes French Fries and Coke Size M product photo",
      "protein_ratio": "",
      "regdate": "2019-05-30",
      "sub_category_seq": 0
    },
    {
      "eng_content": "Two 100% beef patties, a strip bacon layered with lettuce,<br> sweet and spicy chili sauce with one juicy slice of tomato <br>\r\n<br>\r\n*Available from 10:30AM to 4AM<br>",
      "kor_origin": "",
      "allegyList": [],
      "name_txt": "",
      "materialList": [],
      "prev": null,
      "carbohydrate": "",
      "moddate": "2024-08-14",
      "pc_kor_alt": "베이컨 토마토 디럭스 세트 감자튀김과 콜라M사이즈 포함 제품 사진",
      "mo_image_url": "/upload/product/mofile/1723563925269.png",
      "protein": "",
      "fat": "",
      "pc_list_thum_url": "/upload/product/pcthum/1723563883251.png",
      "fat_ratio": "",
      "pc_list_image_url": "/upload/product/pcList/1723563871025.png",
      "pc_image_url": "/upload/product/pcfile/1723563896442.png",
      "weight": "",
      "volume": "",
      "sodium": "",
      "volume_ratio": "",
      "calorie": "894~1033",
      "eng_name": "Bacon Tomato Deluxe Meal",
      "seq_txt": "",
      "sodium_ratio": "",
      "status": "Y",
      "next": null,
      "open_time_start": "2013.11.27 00:00",
      "caffeine_ratio": "",
      "mo_kor_alt": "베이컨 토마토 디럭스 세트 감자튀김과 콜라M사이즈 포함 제품 사진",
      "mo_list_eng_alt": "Bacon Tomato Deluxe Meal",
      "sizeList": [],
      "mo_eng_alt": "Bacon Tomato Deluxe Meal Includes French Fries and Coke Size M  product photo",
      "mo_list_kor_alt": "베이컨 토마토 디럭스 세트",
      "mo_list_image_url": "/upload/product/molist/1723563908452.png",
      "calorie_ratio": "",
      "weight_ratio": "",
      "caffeine": "",
      "modadmin": 0,
      "od": 200,
      "open_time_end": "9999.12.31 00:00",
      "subCategoryList": [],
      "oldcode": "sm50",
      "seq": 187,
      "regadmin": 0,
      "rnum": 17,
      "carbohydrate_ratio": "",
      "kor_content": "두 장의 100% 순 쇠고기 패티에 그릴에 구워 <br/>더욱 고소한 1장의 베이컨을 얹고,<br/> 신선한 토마토와 양상추,<br/>매콤달콤한 스위트 칠리 소스, 치즈, 마요네즈를 더해<br/>더욱 풍부하고 신선한 맛의 프리미엄 버거<br>\r\n<br>\r\n*판매 시간: 10:30AM~4AM",
      "pc_list_eng_alt": "Bacon Tomato Deluxe Meal",
      "pc_list_kor_alt": "베이컨 토마토 디럭스 세트",
      "eng_origin": "",
      "status_txt": "",
      "kor_name": "베이컨 토마토 디럭스 세트",
      "pc_eng_alt": "Bacon Tomato Deluxe Meal Includes French Fries and Coke Size M  product photo",
      "protein_ratio": "",
      "regdate": "2019-05-30",
      "sub_category_seq": 0
    },
    {
      "eng_content": "McDonald’s simple classic burger\r\nwith melty cheese and juicy, 100% beef patty.<br>\r\n<br>\r\n*Available from 10:30AM to 4AM",
      "kor_origin": "",
      "allegyList": [],
      "name_txt": "",
      "materialList": [],
      "prev": null,
      "carbohydrate": "",
      "moddate": "2024-08-14",
      "pc_kor_alt": "치즈버거 세트 감자튀김과 콜라M사이즈 포함 제품 사진",
      "mo_image_url": "/upload/product/mofile/1723563154474.png",
      "protein": "",
      "fat": "",
      "pc_list_thum_url": "/upload/product/pcthum/1723563060188.png",
      "fat_ratio": "",
      "pc_list_image_url": "/upload/product/pcList/1723563047367.png",
      "pc_image_url": "/upload/product/pcfile/1723563067813.png",
      "weight": "",
      "volume": "",
      "sodium": "",
      "volume_ratio": "",
      "calorie": "641~781",
      "eng_name": "Cheeseburger Meal",
      "seq_txt": "",
      "sodium_ratio": "",
      "status": "Y",
      "next": null,
      "open_time_start": "2020.01.20 00:00",
      "caffeine_ratio": "",
      "mo_kor_alt": "치즈버거 세트 감자튀김과 콜라M사이즈 포함 제품 사진",
      "mo_list_eng_alt": "Cheeseburger Meal",
      "sizeList": [],
      "mo_eng_alt": "Cheeseburger Meal  Includes French Fries and Coke Size M product photo",
      "mo_list_kor_alt": "치즈버거 세트",
      "mo_list_image_url": "/upload/product/molist/1723563089252.png",
      "calorie_ratio": "",
      "weight_ratio": "",
      "caffeine": "",
      "modadmin": 0,
      "od": 0,
      "open_time_end": "9999.01.21 00:00",
      "subCategoryList": [],
      "oldcode": "",
      "seq": 318,
      "regadmin": 4,
      "rnum": 18,
      "carbohydrate_ratio": "",
      "kor_content": "고소하고 부드러운 치즈와 100% 순 쇠고기 패티,\r\n맥도날드만의 심플한 클래식 치즈버거.<br>\r\n<br>\r\n*판매 시간: 10:30AM~4AM",
      "pc_list_eng_alt": "Cheeseburger Meal",
      "pc_list_kor_alt": "치즈버거 세트",
      "eng_origin": "",
      "status_txt": "",
      "kor_name": "치즈버거 세트",
      "pc_eng_alt": "Cheeseburger Meal Includes French Fries and Coke Size M product photo",
      "protein_ratio": "",
      "regdate": "2020-01-20",
      "sub_category_seq": 0
    }
  ]
}
