{
  "totalPage": 4,
  "page": 4,
  "is_ok": "ok",
  "totalCount": 20,
  "list": [
    {
      "eng_content": "McDonald’s Double Cheeseburger<br>\r\nwith melty cheese and juicy, 100% beef patty.<br>\r\n<br>\r\n*Available from 10:30AM to 4AM",
      "kor_origin": "",
      "allegyList": [],
      "name_txt": "",
      "materialList": [],
      "prev": null,
      "carbohydrate": "",
      "moddate": "2024-08-14",
      "pc_kor_alt": "더블 치즈버거 세트 감자튀김과 콜라M사이즈 포함 제품 사진",
      "mo_image_url": "/upload/product/mofile/1723563534654.png",
      "protein": "",
      "fat": "",
      "pc_list_thum_url": "/upload/product/pcthum/1723563502800.png",
      "fat_ratio": "",
      "pc_list_image_url": "/upload/product/pcList/1723563488881.png",
      "pc_image_url": "/upload/product/pcfile/1723563512104.png",
      "weight": "",
      "volume": "",
      "sodium": "",
      "volume_ratio": "",
      "calorie": "802~942",
      "eng_name": "Double Cheeseburger Meal",
      "seq_txt": "",
      "sodium_ratio": "",
      "status": "Y",
      "next": null,
      "open_time_start": "2020.01.19 00:00",
      "caffeine_ratio": "",
      "mo_kor_alt": "더블 치즈버거 세트 감자튀김과 콜라M사이즈 포함 제품 사진",
      "mo_list_eng_alt": "Double Cheeseburger Meal",
      "sizeList": [],
      "mo_eng_alt": "Double Cheeseburger Meal Includes French Fries and Coke Size M product photo",
      "mo_list_kor_alt": "더블 치즈버거 세트",
      "mo_list_image_url": "/upload/product/molist/1723563527016.png",
      "calorie_ratio": "",
      "weight_ratio": "",
      "caffeine": "",
      "modadmin": 0,
      "od": 200,
      "open_time_end": "9999.12.31 00:00",
      "subCategoryList": [],
      "oldcode": "W0208y8HAL",
      "seq": 224,
      "regadmin": 0,
      "rnum": 19,
      "carbohydrate_ratio": "",
      "kor_content": "고소하고 부드러운 치즈와 <br>100% 순 쇠고기 패티가 두개<br>\r\n맥도날드만의 더블 치즈버거!!<br>\r\n<br>\r\n*판매 시간: 10:30AM~4AM",
      "pc_list_eng_alt": "Double Cheeseburger Meal",
      "pc_list_kor_alt": "더블 치즈버거 세트",
      "eng_origin": "",
      "status_txt": "",
      "kor_name": "더블 치즈버거 세트",
      "pc_eng_alt": "Double Cheeseburger Meal Includes French Fries and Coke Size M product photo",
      "protein_ratio": "",
      "regdate": "2019-05-30",
      "sub_category_seq": 0
    },
    {
      "eng_content": "Deep flavor with melted cheese<br>\r\nEnjoy more with Tripple!",
      "kor_origin": "",
      "allegyList": [],
      "name_txt": "",
      "materialList": [],
      "prev": null,
      "carbohydrate": "",
      "moddate": "2024-08-14",
      "pc_kor_alt": "신제품 트리플 치즈버거 세트_감자튀김과 콜라M사이즈 포함 제품 사진",
      "mo_image_url": "/upload/product/mofile/1723563016316.png",
      "protein": "",
      "fat": "",
      "pc_list_thum_url": "/upload/product/pcthum/1723562993791.png",
      "fat_ratio": "",
      "pc_list_image_url": "/upload/product/pcList/1723562986522.png",
      "pc_image_url": "/upload/product/pcfile/1723563001764.png",
      "weight": "",
      "volume": "",
      "sodium": "",
      "volume_ratio": "",
      "calorie": "943~1083",
      "eng_name": "Triple Cheeseburger Meal",
      "seq_txt": "",
      "sodium_ratio": "",
      "status": "Y",
      "next": null,
      "open_time_start": "2021.05.27 09:00",
      "caffeine_ratio": "",
      "mo_kor_alt": "신제품 트리플 치즈버거 세트_감자튀김과 콜라M사이즈 포함 제품 사진",
      "mo_list_eng_alt": "New",
      "sizeList": [],
      "mo_eng_alt": "New Triple Cheeseburger Meal Includes French Fries and Coke Size M product photo",
      "mo_list_kor_alt": "신제품",
      "mo_list_image_url": "/upload/product/molist/1723563009892.png",
      "calorie_ratio": "",
      "weight_ratio": "",
      "caffeine": "",
      "modadmin": 0,
      "od": 0,
      "open_time_end": "9999.07.31 00:00",
      "subCategoryList": [],
      "oldcode": "",
      "seq": 388,
      "regadmin": 13,
      "rnum": 20,
      "carbohydrate_ratio": "",
      "kor_content": "부드러운 치즈와 풍부한 육즙의 패티를<br>\r\n세배 더 진하게 즐길 수 있는 트리플 치즈버거",
      "pc_list_eng_alt": "New",
      "pc_list_kor_alt": "신제품",
      "eng_origin": "",
      "status_txt": "",
      "kor_name": "트리플 치즈버거 세트",
      "pc_eng_alt": "New Triple Cheeseburger Meal Includes French Fries and Coke Size M  product photo",
      "protein_ratio": "",
      "regdate": "2021-05-24",
      "sub_category_seq": 0
    }
  ]
}
